G04 EAGLE Gerber X2 export*
%TF.Part,Single*%
%TF.FileFunction,Copper,L1,Top,Mixed*%
%TF.FilePolarity,Positive*%
%TF.GenerationSoftware,Autodesk,EAGLE,8.6.0*%
%TF.CreationDate,2018-08-07T17:14:35Z*%
G75*
%MOMM*%
%FSLAX34Y34*%
%LPD*%
%AMOC8*
5,1,8,0,0,1.08239X$1,22.5*%
G01*
%ADD10C,1.524000*%
%ADD11C,4.597400*%
%ADD12P,4.976180X8X112.500000*%
%ADD13C,2.540000*%
%ADD14P,2.749271X8X112.500000*%
%ADD15C,1.981200*%


D10*
X198120Y341814D02*
X182880Y341814D01*
X182880Y191700D02*
X198120Y191700D01*
X198120Y292030D02*
X182880Y292030D01*
X182880Y241738D02*
X198120Y241738D01*
D11*
X368300Y88900D03*
D12*
X368300Y190500D03*
D11*
X622300Y88900D03*
D12*
X622300Y190500D03*
D11*
X368300Y342900D03*
D12*
X368300Y444500D03*
D11*
X622300Y342900D03*
D12*
X622300Y444500D03*
D13*
X76200Y76200D03*
D14*
X76200Y127000D03*
D13*
X76200Y406400D03*
D14*
X76200Y457200D03*
D15*
X73406Y216662D02*
X53594Y216662D01*
X53594Y266700D02*
X73406Y266700D01*
X73406Y316738D02*
X53594Y316738D01*
X802894Y316738D02*
X822706Y316738D01*
X822706Y266700D02*
X802894Y266700D01*
X802894Y216662D02*
X822706Y216662D01*
M02*
