G04 EAGLE Gerber X2 export*
%TF.Part,Single*%
%TF.FileFunction,Copper,L2,Bot,Mixed*%
%TF.FilePolarity,Positive*%
%TF.GenerationSoftware,Autodesk,EAGLE,8.6.0*%
%TF.CreationDate,2018-08-07T17:14:35Z*%
G75*
%MOMM*%
%FSLAX34Y34*%
%LPD*%
%AMOC8*
5,1,8,0,0,1.08239X$1,22.5*%
G01*
%ADD10C,1.524000*%
%ADD11C,4.597400*%
%ADD12P,4.976180X8X112.500000*%
%ADD13C,2.540000*%
%ADD14P,2.749271X8X112.500000*%
%ADD15C,1.981200*%
%ADD16C,2.540000*%

G36*
X859005Y148353D02*
X859005Y148353D01*
X859236Y148363D01*
X859290Y148373D01*
X859344Y148377D01*
X859570Y148425D01*
X859796Y148467D01*
X859848Y148484D01*
X859902Y148496D01*
X860118Y148575D01*
X860336Y148648D01*
X860385Y148673D01*
X860437Y148692D01*
X860640Y148800D01*
X860845Y148903D01*
X860891Y148934D01*
X860939Y148960D01*
X861125Y149096D01*
X861314Y149227D01*
X861355Y149264D01*
X861399Y149297D01*
X861564Y149457D01*
X861733Y149613D01*
X861768Y149656D01*
X861807Y149694D01*
X861948Y149876D01*
X862094Y150054D01*
X862122Y150102D01*
X862156Y150145D01*
X862270Y150345D01*
X862389Y150542D01*
X862411Y150592D01*
X862438Y150640D01*
X862523Y150854D01*
X862614Y151065D01*
X862628Y151118D01*
X862648Y151169D01*
X862703Y151394D01*
X862763Y151615D01*
X862767Y151659D01*
X862783Y151723D01*
X862838Y152290D01*
X862835Y152356D01*
X862839Y152400D01*
X862839Y381000D01*
X862823Y381229D01*
X862813Y381460D01*
X862803Y381514D01*
X862799Y381568D01*
X862751Y381794D01*
X862709Y382020D01*
X862692Y382072D01*
X862680Y382126D01*
X862601Y382342D01*
X862528Y382560D01*
X862503Y382609D01*
X862484Y382661D01*
X862376Y382864D01*
X862273Y383069D01*
X862242Y383115D01*
X862216Y383163D01*
X862080Y383349D01*
X861949Y383538D01*
X861912Y383579D01*
X861879Y383623D01*
X861719Y383788D01*
X861563Y383957D01*
X861520Y383992D01*
X861482Y384031D01*
X861300Y384172D01*
X861122Y384318D01*
X861074Y384346D01*
X861031Y384380D01*
X860831Y384494D01*
X860634Y384613D01*
X860584Y384635D01*
X860536Y384662D01*
X860322Y384747D01*
X860111Y384838D01*
X860058Y384852D01*
X860007Y384872D01*
X859782Y384927D01*
X859561Y384987D01*
X859517Y384991D01*
X859453Y385007D01*
X858886Y385062D01*
X858820Y385059D01*
X858776Y385063D01*
X837692Y385063D01*
X837463Y385047D01*
X837232Y385037D01*
X837178Y385027D01*
X837124Y385023D01*
X836898Y384975D01*
X836672Y384933D01*
X836620Y384916D01*
X836566Y384904D01*
X836350Y384825D01*
X836132Y384752D01*
X836083Y384727D01*
X836031Y384708D01*
X835828Y384600D01*
X835623Y384497D01*
X835577Y384466D01*
X835529Y384440D01*
X835343Y384304D01*
X835154Y384173D01*
X835113Y384136D01*
X835069Y384103D01*
X834904Y383943D01*
X834735Y383787D01*
X834700Y383744D01*
X834661Y383706D01*
X834520Y383524D01*
X834374Y383346D01*
X834346Y383298D01*
X834312Y383255D01*
X834198Y383055D01*
X834079Y382858D01*
X834057Y382808D01*
X834030Y382760D01*
X833945Y382546D01*
X833854Y382335D01*
X833840Y382282D01*
X833820Y382231D01*
X833765Y382006D01*
X833705Y381785D01*
X833701Y381741D01*
X833685Y381677D01*
X833630Y381110D01*
X833633Y381044D01*
X833629Y381000D01*
X833629Y333003D01*
X833633Y332943D01*
X833631Y332883D01*
X833653Y332659D01*
X833669Y332435D01*
X833681Y332376D01*
X833687Y332316D01*
X833741Y332097D01*
X833788Y331878D01*
X833808Y331821D01*
X833823Y331762D01*
X833906Y331554D01*
X833984Y331343D01*
X834012Y331289D01*
X834035Y331233D01*
X834146Y331038D01*
X834252Y330840D01*
X834288Y330791D01*
X834318Y330739D01*
X834393Y330648D01*
X834589Y330380D01*
X834746Y330219D01*
X834819Y330130D01*
X837995Y326954D01*
X840741Y320325D01*
X840741Y313151D01*
X837995Y306522D01*
X832922Y301449D01*
X826293Y298703D01*
X824497Y298703D01*
X824379Y298695D01*
X824261Y298696D01*
X824095Y298675D01*
X823928Y298663D01*
X823813Y298639D01*
X823696Y298624D01*
X823586Y298590D01*
X823371Y298544D01*
X823053Y298428D01*
X822942Y298394D01*
X816943Y295909D01*
X808657Y295909D01*
X802658Y298394D01*
X802556Y298428D01*
X802501Y298452D01*
X802496Y298453D01*
X802438Y298478D01*
X802277Y298521D01*
X802118Y298575D01*
X802002Y298596D01*
X801888Y298627D01*
X801774Y298638D01*
X801557Y298678D01*
X801219Y298692D01*
X801103Y298703D01*
X799307Y298703D01*
X792678Y301449D01*
X787605Y306522D01*
X784859Y313151D01*
X784859Y320325D01*
X787605Y326954D01*
X790781Y330130D01*
X790821Y330176D01*
X790865Y330217D01*
X791008Y330391D01*
X791155Y330560D01*
X791188Y330611D01*
X791226Y330658D01*
X791342Y330850D01*
X791465Y331038D01*
X791490Y331093D01*
X791521Y331145D01*
X791610Y331351D01*
X791705Y331555D01*
X791722Y331613D01*
X791746Y331669D01*
X791804Y331885D01*
X791870Y332101D01*
X791879Y332160D01*
X791895Y332219D01*
X791906Y332336D01*
X791957Y332664D01*
X791960Y332889D01*
X791971Y333003D01*
X791971Y381000D01*
X791955Y381229D01*
X791945Y381460D01*
X791935Y381514D01*
X791931Y381568D01*
X791883Y381794D01*
X791841Y382020D01*
X791824Y382072D01*
X791812Y382126D01*
X791733Y382342D01*
X791660Y382560D01*
X791635Y382609D01*
X791616Y382661D01*
X791508Y382864D01*
X791405Y383069D01*
X791374Y383115D01*
X791348Y383163D01*
X791212Y383349D01*
X791081Y383538D01*
X791044Y383579D01*
X791011Y383623D01*
X790851Y383788D01*
X790695Y383957D01*
X790652Y383992D01*
X790614Y384031D01*
X790432Y384172D01*
X790254Y384318D01*
X790206Y384346D01*
X790163Y384380D01*
X789963Y384494D01*
X789766Y384613D01*
X789716Y384635D01*
X789668Y384662D01*
X789454Y384747D01*
X789243Y384838D01*
X789190Y384852D01*
X789139Y384872D01*
X788914Y384927D01*
X788693Y384987D01*
X788649Y384991D01*
X788585Y385007D01*
X788018Y385062D01*
X787952Y385059D01*
X787908Y385063D01*
X215392Y385063D01*
X215163Y385047D01*
X214932Y385037D01*
X214878Y385027D01*
X214824Y385023D01*
X214598Y384975D01*
X214372Y384933D01*
X214320Y384916D01*
X214266Y384904D01*
X214050Y384825D01*
X213832Y384752D01*
X213783Y384727D01*
X213731Y384708D01*
X213528Y384600D01*
X213323Y384497D01*
X213277Y384466D01*
X213229Y384440D01*
X213043Y384304D01*
X212854Y384173D01*
X212813Y384136D01*
X212769Y384103D01*
X212604Y383943D01*
X212435Y383787D01*
X212400Y383744D01*
X212361Y383706D01*
X212220Y383524D01*
X212074Y383346D01*
X212046Y383298D01*
X212012Y383255D01*
X211898Y383055D01*
X211779Y382858D01*
X211757Y382808D01*
X211730Y382760D01*
X211645Y382546D01*
X211554Y382335D01*
X211540Y382282D01*
X211520Y382231D01*
X211465Y382006D01*
X211405Y381785D01*
X211401Y381741D01*
X211385Y381677D01*
X211330Y381110D01*
X211333Y381044D01*
X211329Y381000D01*
X211329Y351887D01*
X211337Y351769D01*
X211336Y351651D01*
X211357Y351486D01*
X211369Y351319D01*
X211393Y351203D01*
X211408Y351086D01*
X211442Y350977D01*
X211488Y350761D01*
X211604Y350443D01*
X211638Y350332D01*
X213484Y345876D01*
X213869Y344947D01*
X213869Y338681D01*
X211471Y332893D01*
X207041Y328462D01*
X206938Y328411D01*
X206829Y328368D01*
X206684Y328285D01*
X206534Y328210D01*
X206437Y328143D01*
X206334Y328084D01*
X206246Y328012D01*
X206065Y327886D01*
X205815Y327657D01*
X205725Y327583D01*
X202299Y324156D01*
X194643Y320985D01*
X186357Y320985D01*
X178701Y324156D01*
X175275Y327583D01*
X175186Y327661D01*
X175103Y327745D01*
X174971Y327847D01*
X174844Y327957D01*
X174745Y328021D01*
X174652Y328093D01*
X174551Y328147D01*
X174366Y328267D01*
X174059Y328409D01*
X173960Y328462D01*
X169529Y332893D01*
X167131Y338681D01*
X167131Y344947D01*
X169362Y350332D01*
X169399Y350444D01*
X169446Y350552D01*
X169490Y350714D01*
X169543Y350872D01*
X169564Y350989D01*
X169595Y351102D01*
X169606Y351216D01*
X169646Y351433D01*
X169660Y351771D01*
X169671Y351887D01*
X169671Y381000D01*
X169655Y381229D01*
X169645Y381460D01*
X169635Y381514D01*
X169631Y381568D01*
X169583Y381794D01*
X169541Y382020D01*
X169524Y382072D01*
X169512Y382126D01*
X169433Y382342D01*
X169360Y382560D01*
X169335Y382609D01*
X169316Y382661D01*
X169208Y382864D01*
X169105Y383069D01*
X169074Y383115D01*
X169048Y383163D01*
X168912Y383349D01*
X168781Y383538D01*
X168744Y383579D01*
X168711Y383623D01*
X168551Y383788D01*
X168395Y383957D01*
X168352Y383992D01*
X168314Y384031D01*
X168132Y384172D01*
X167954Y384318D01*
X167906Y384346D01*
X167863Y384380D01*
X167663Y384494D01*
X167466Y384613D01*
X167416Y384635D01*
X167368Y384662D01*
X167154Y384747D01*
X166943Y384838D01*
X166890Y384852D01*
X166839Y384872D01*
X166614Y384927D01*
X166393Y384987D01*
X166349Y384991D01*
X166285Y385007D01*
X165718Y385062D01*
X165652Y385059D01*
X165608Y385063D01*
X14224Y385063D01*
X13995Y385047D01*
X13764Y385037D01*
X13710Y385027D01*
X13656Y385023D01*
X13430Y384975D01*
X13204Y384933D01*
X13152Y384916D01*
X13098Y384904D01*
X12882Y384825D01*
X12664Y384752D01*
X12615Y384727D01*
X12563Y384708D01*
X12360Y384600D01*
X12155Y384497D01*
X12109Y384466D01*
X12061Y384440D01*
X11875Y384304D01*
X11686Y384173D01*
X11645Y384136D01*
X11601Y384103D01*
X11436Y383943D01*
X11267Y383787D01*
X11232Y383744D01*
X11193Y383706D01*
X11052Y383524D01*
X10906Y383346D01*
X10878Y383298D01*
X10844Y383255D01*
X10730Y383055D01*
X10611Y382858D01*
X10589Y382808D01*
X10562Y382760D01*
X10477Y382546D01*
X10386Y382335D01*
X10372Y382282D01*
X10352Y382231D01*
X10297Y382006D01*
X10237Y381785D01*
X10233Y381741D01*
X10217Y381677D01*
X10162Y381110D01*
X10165Y381044D01*
X10161Y381000D01*
X10161Y152400D01*
X10177Y152171D01*
X10187Y151940D01*
X10197Y151886D01*
X10201Y151832D01*
X10249Y151606D01*
X10291Y151380D01*
X10308Y151328D01*
X10320Y151274D01*
X10399Y151058D01*
X10472Y150840D01*
X10497Y150791D01*
X10516Y150739D01*
X10624Y150536D01*
X10727Y150331D01*
X10758Y150285D01*
X10784Y150237D01*
X10920Y150051D01*
X11051Y149862D01*
X11088Y149821D01*
X11121Y149777D01*
X11281Y149612D01*
X11437Y149443D01*
X11480Y149408D01*
X11518Y149369D01*
X11700Y149228D01*
X11878Y149082D01*
X11926Y149054D01*
X11969Y149020D01*
X12169Y148906D01*
X12366Y148787D01*
X12416Y148765D01*
X12464Y148738D01*
X12678Y148653D01*
X12889Y148562D01*
X12942Y148548D01*
X12993Y148528D01*
X13218Y148473D01*
X13439Y148413D01*
X13483Y148409D01*
X13547Y148394D01*
X14114Y148338D01*
X14180Y148341D01*
X14224Y148337D01*
X165608Y148337D01*
X165837Y148353D01*
X166068Y148363D01*
X166122Y148373D01*
X166176Y148377D01*
X166402Y148425D01*
X166628Y148467D01*
X166680Y148484D01*
X166734Y148496D01*
X166950Y148575D01*
X167168Y148648D01*
X167217Y148673D01*
X167269Y148692D01*
X167472Y148800D01*
X167677Y148903D01*
X167723Y148934D01*
X167771Y148960D01*
X167957Y149096D01*
X168146Y149227D01*
X168187Y149264D01*
X168231Y149297D01*
X168396Y149457D01*
X168565Y149613D01*
X168600Y149656D01*
X168639Y149694D01*
X168780Y149876D01*
X168926Y150054D01*
X168954Y150102D01*
X168988Y150145D01*
X169102Y150345D01*
X169221Y150542D01*
X169243Y150592D01*
X169270Y150640D01*
X169355Y150854D01*
X169446Y151065D01*
X169460Y151118D01*
X169480Y151169D01*
X169535Y151394D01*
X169595Y151615D01*
X169599Y151659D01*
X169615Y151723D01*
X169670Y152290D01*
X169667Y152356D01*
X169671Y152400D01*
X169671Y181627D01*
X169663Y181745D01*
X169664Y181863D01*
X169643Y182028D01*
X169631Y182195D01*
X169607Y182311D01*
X169592Y182428D01*
X169558Y182537D01*
X169512Y182753D01*
X169396Y183071D01*
X169362Y183182D01*
X168002Y186466D01*
X167131Y188567D01*
X167131Y194833D01*
X169529Y200621D01*
X173960Y205052D01*
X174062Y205103D01*
X174171Y205146D01*
X174317Y205230D01*
X174466Y205304D01*
X174563Y205371D01*
X174666Y205430D01*
X174754Y205503D01*
X174935Y205628D01*
X175184Y205857D01*
X175275Y205931D01*
X178701Y209358D01*
X186357Y212529D01*
X194643Y212529D01*
X202299Y209358D01*
X205725Y205931D01*
X205815Y205853D01*
X205897Y205769D01*
X206029Y205667D01*
X206156Y205557D01*
X206255Y205493D01*
X206348Y205421D01*
X206449Y205367D01*
X206634Y205247D01*
X206941Y205105D01*
X207040Y205052D01*
X211471Y200621D01*
X213869Y194833D01*
X213869Y188567D01*
X211638Y183182D01*
X211601Y183070D01*
X211554Y182962D01*
X211510Y182800D01*
X211457Y182642D01*
X211436Y182525D01*
X211405Y182412D01*
X211394Y182298D01*
X211354Y182081D01*
X211340Y181743D01*
X211329Y181627D01*
X211329Y152400D01*
X211345Y152171D01*
X211355Y151940D01*
X211365Y151886D01*
X211369Y151832D01*
X211417Y151606D01*
X211459Y151380D01*
X211476Y151328D01*
X211488Y151274D01*
X211567Y151058D01*
X211640Y150840D01*
X211665Y150791D01*
X211684Y150739D01*
X211792Y150536D01*
X211895Y150331D01*
X211926Y150285D01*
X211952Y150237D01*
X212088Y150051D01*
X212219Y149862D01*
X212256Y149821D01*
X212289Y149777D01*
X212449Y149612D01*
X212605Y149443D01*
X212648Y149408D01*
X212686Y149369D01*
X212868Y149228D01*
X213046Y149082D01*
X213094Y149054D01*
X213137Y149020D01*
X213337Y148906D01*
X213534Y148787D01*
X213584Y148765D01*
X213632Y148738D01*
X213846Y148653D01*
X214057Y148562D01*
X214110Y148548D01*
X214161Y148528D01*
X214386Y148473D01*
X214607Y148413D01*
X214651Y148409D01*
X214715Y148394D01*
X215282Y148338D01*
X215348Y148341D01*
X215392Y148337D01*
X787908Y148337D01*
X788137Y148353D01*
X788368Y148363D01*
X788422Y148373D01*
X788476Y148377D01*
X788702Y148425D01*
X788928Y148467D01*
X788980Y148484D01*
X789034Y148496D01*
X789250Y148575D01*
X789468Y148648D01*
X789517Y148673D01*
X789569Y148692D01*
X789772Y148800D01*
X789977Y148903D01*
X790023Y148934D01*
X790071Y148960D01*
X790257Y149096D01*
X790446Y149227D01*
X790487Y149264D01*
X790531Y149297D01*
X790696Y149457D01*
X790865Y149613D01*
X790900Y149656D01*
X790939Y149694D01*
X791080Y149876D01*
X791226Y150054D01*
X791254Y150102D01*
X791288Y150145D01*
X791402Y150345D01*
X791521Y150542D01*
X791543Y150592D01*
X791570Y150640D01*
X791655Y150854D01*
X791746Y151065D01*
X791760Y151118D01*
X791780Y151169D01*
X791835Y151394D01*
X791895Y151615D01*
X791899Y151659D01*
X791915Y151723D01*
X791970Y152290D01*
X791967Y152356D01*
X791971Y152400D01*
X791971Y200397D01*
X791967Y200457D01*
X791969Y200517D01*
X791947Y200741D01*
X791931Y200965D01*
X791919Y201024D01*
X791913Y201084D01*
X791859Y201303D01*
X791812Y201522D01*
X791792Y201579D01*
X791777Y201638D01*
X791694Y201846D01*
X791616Y202057D01*
X791588Y202111D01*
X791566Y202167D01*
X791454Y202361D01*
X791348Y202560D01*
X791312Y202609D01*
X791282Y202661D01*
X791207Y202752D01*
X791011Y203020D01*
X790854Y203181D01*
X790781Y203270D01*
X787605Y206446D01*
X784859Y213075D01*
X784859Y220249D01*
X787605Y226878D01*
X792678Y231951D01*
X799307Y234697D01*
X801103Y234697D01*
X801221Y234705D01*
X801339Y234704D01*
X801505Y234725D01*
X801672Y234737D01*
X801787Y234761D01*
X801904Y234776D01*
X802014Y234810D01*
X802229Y234856D01*
X802547Y234972D01*
X802658Y235006D01*
X808657Y237491D01*
X816943Y237491D01*
X822942Y235006D01*
X823054Y234969D01*
X823162Y234922D01*
X823323Y234879D01*
X823482Y234825D01*
X823598Y234804D01*
X823712Y234773D01*
X823826Y234762D01*
X824043Y234722D01*
X824381Y234708D01*
X824497Y234697D01*
X826293Y234697D01*
X832922Y231951D01*
X837995Y226878D01*
X840741Y220249D01*
X840741Y213075D01*
X837995Y206446D01*
X834819Y203270D01*
X834779Y203224D01*
X834735Y203183D01*
X834593Y203009D01*
X834445Y202840D01*
X834412Y202789D01*
X834374Y202742D01*
X834257Y202550D01*
X834135Y202361D01*
X834110Y202307D01*
X834079Y202255D01*
X833990Y202049D01*
X833895Y201845D01*
X833878Y201787D01*
X833854Y201731D01*
X833796Y201515D01*
X833730Y201299D01*
X833721Y201240D01*
X833705Y201181D01*
X833694Y201064D01*
X833643Y200736D01*
X833640Y200511D01*
X833629Y200397D01*
X833629Y152400D01*
X833645Y152171D01*
X833655Y151940D01*
X833665Y151886D01*
X833669Y151832D01*
X833717Y151606D01*
X833759Y151380D01*
X833776Y151328D01*
X833788Y151274D01*
X833867Y151058D01*
X833940Y150840D01*
X833965Y150791D01*
X833984Y150739D01*
X834092Y150536D01*
X834195Y150331D01*
X834226Y150285D01*
X834252Y150237D01*
X834388Y150051D01*
X834519Y149862D01*
X834556Y149821D01*
X834589Y149777D01*
X834749Y149612D01*
X834905Y149443D01*
X834948Y149408D01*
X834986Y149369D01*
X835168Y149228D01*
X835346Y149082D01*
X835394Y149054D01*
X835437Y149020D01*
X835637Y148906D01*
X835834Y148787D01*
X835884Y148765D01*
X835932Y148738D01*
X836146Y148653D01*
X836357Y148562D01*
X836410Y148548D01*
X836461Y148528D01*
X836686Y148473D01*
X836907Y148413D01*
X836951Y148409D01*
X837015Y148393D01*
X837582Y148338D01*
X837648Y148341D01*
X837692Y148337D01*
X858776Y148337D01*
X859005Y148353D01*
G37*
G36*
X859005Y10177D02*
X859005Y10177D01*
X859236Y10187D01*
X859290Y10197D01*
X859344Y10201D01*
X859570Y10249D01*
X859796Y10291D01*
X859848Y10308D01*
X859902Y10320D01*
X860118Y10399D01*
X860336Y10472D01*
X860385Y10497D01*
X860437Y10516D01*
X860640Y10624D01*
X860845Y10727D01*
X860891Y10758D01*
X860939Y10784D01*
X861125Y10920D01*
X861314Y11051D01*
X861355Y11088D01*
X861399Y11121D01*
X861564Y11281D01*
X861733Y11437D01*
X861768Y11480D01*
X861807Y11518D01*
X861948Y11700D01*
X862094Y11878D01*
X862122Y11926D01*
X862156Y11969D01*
X862270Y12169D01*
X862389Y12366D01*
X862411Y12416D01*
X862438Y12464D01*
X862523Y12678D01*
X862614Y12889D01*
X862628Y12942D01*
X862648Y12993D01*
X862703Y13218D01*
X862763Y13439D01*
X862767Y13483D01*
X862783Y13547D01*
X862838Y14114D01*
X862835Y14180D01*
X862839Y14224D01*
X862839Y127000D01*
X862823Y127229D01*
X862813Y127460D01*
X862803Y127514D01*
X862799Y127568D01*
X862751Y127794D01*
X862709Y128020D01*
X862692Y128072D01*
X862680Y128126D01*
X862601Y128342D01*
X862528Y128560D01*
X862503Y128609D01*
X862484Y128661D01*
X862376Y128864D01*
X862273Y129069D01*
X862242Y129115D01*
X862216Y129163D01*
X862080Y129349D01*
X861949Y129538D01*
X861912Y129579D01*
X861879Y129623D01*
X861719Y129788D01*
X861563Y129957D01*
X861520Y129992D01*
X861482Y130031D01*
X861300Y130172D01*
X861122Y130318D01*
X861074Y130346D01*
X861031Y130380D01*
X860831Y130494D01*
X860634Y130613D01*
X860584Y130635D01*
X860536Y130662D01*
X860322Y130747D01*
X860111Y130838D01*
X860058Y130852D01*
X860007Y130872D01*
X859782Y130927D01*
X859561Y130987D01*
X859517Y130991D01*
X859453Y131006D01*
X858886Y131062D01*
X858820Y131059D01*
X858776Y131063D01*
X101092Y131063D01*
X100863Y131047D01*
X100632Y131037D01*
X100578Y131027D01*
X100524Y131023D01*
X100298Y130975D01*
X100072Y130933D01*
X100020Y130916D01*
X99966Y130904D01*
X99750Y130825D01*
X99532Y130752D01*
X99483Y130727D01*
X99431Y130708D01*
X99228Y130600D01*
X99023Y130497D01*
X98977Y130466D01*
X98929Y130440D01*
X98743Y130304D01*
X98554Y130173D01*
X98513Y130136D01*
X98469Y130103D01*
X98304Y129943D01*
X98135Y129787D01*
X98100Y129744D01*
X98061Y129706D01*
X97920Y129524D01*
X97774Y129346D01*
X97746Y129298D01*
X97712Y129255D01*
X97598Y129055D01*
X97479Y128858D01*
X97457Y128808D01*
X97430Y128760D01*
X97345Y128546D01*
X97254Y128335D01*
X97240Y128282D01*
X97220Y128231D01*
X97165Y128006D01*
X97105Y127785D01*
X97101Y127741D01*
X97085Y127677D01*
X97030Y127110D01*
X97033Y127044D01*
X97029Y127000D01*
X97029Y118372D01*
X94429Y115773D01*
X87427Y108771D01*
X84828Y106171D01*
X67572Y106171D01*
X64973Y108771D01*
X57971Y115773D01*
X55371Y118372D01*
X55371Y127000D01*
X55355Y127229D01*
X55345Y127460D01*
X55335Y127514D01*
X55331Y127568D01*
X55283Y127794D01*
X55241Y128020D01*
X55224Y128072D01*
X55212Y128126D01*
X55133Y128342D01*
X55060Y128560D01*
X55035Y128609D01*
X55016Y128661D01*
X54908Y128864D01*
X54805Y129069D01*
X54774Y129115D01*
X54748Y129163D01*
X54612Y129349D01*
X54481Y129538D01*
X54444Y129579D01*
X54411Y129623D01*
X54251Y129788D01*
X54095Y129957D01*
X54052Y129992D01*
X54014Y130031D01*
X53832Y130172D01*
X53654Y130318D01*
X53606Y130346D01*
X53563Y130380D01*
X53363Y130494D01*
X53166Y130613D01*
X53116Y130635D01*
X53068Y130662D01*
X52854Y130747D01*
X52643Y130838D01*
X52590Y130852D01*
X52539Y130872D01*
X52314Y130927D01*
X52093Y130987D01*
X52049Y130991D01*
X51985Y131007D01*
X51418Y131062D01*
X51352Y131059D01*
X51308Y131063D01*
X14224Y131063D01*
X13995Y131047D01*
X13764Y131037D01*
X13710Y131027D01*
X13656Y131023D01*
X13430Y130975D01*
X13204Y130933D01*
X13152Y130916D01*
X13098Y130904D01*
X12882Y130825D01*
X12664Y130752D01*
X12615Y130727D01*
X12563Y130708D01*
X12360Y130600D01*
X12155Y130497D01*
X12109Y130466D01*
X12061Y130440D01*
X11875Y130304D01*
X11686Y130173D01*
X11645Y130136D01*
X11601Y130103D01*
X11436Y129943D01*
X11267Y129787D01*
X11232Y129744D01*
X11193Y129706D01*
X11052Y129524D01*
X10906Y129346D01*
X10878Y129298D01*
X10844Y129255D01*
X10730Y129055D01*
X10611Y128858D01*
X10589Y128808D01*
X10562Y128760D01*
X10477Y128546D01*
X10386Y128335D01*
X10372Y128282D01*
X10352Y128231D01*
X10297Y128006D01*
X10237Y127785D01*
X10233Y127741D01*
X10217Y127677D01*
X10162Y127110D01*
X10165Y127044D01*
X10161Y127000D01*
X10161Y14224D01*
X10177Y13995D01*
X10187Y13764D01*
X10197Y13710D01*
X10201Y13656D01*
X10249Y13430D01*
X10291Y13204D01*
X10308Y13152D01*
X10320Y13098D01*
X10399Y12882D01*
X10472Y12664D01*
X10497Y12615D01*
X10516Y12563D01*
X10624Y12360D01*
X10727Y12155D01*
X10758Y12109D01*
X10784Y12061D01*
X10920Y11875D01*
X11051Y11686D01*
X11088Y11645D01*
X11121Y11601D01*
X11281Y11436D01*
X11437Y11267D01*
X11480Y11232D01*
X11518Y11193D01*
X11700Y11052D01*
X11878Y10906D01*
X11926Y10878D01*
X11969Y10844D01*
X12169Y10730D01*
X12366Y10611D01*
X12416Y10589D01*
X12464Y10562D01*
X12678Y10477D01*
X12889Y10386D01*
X12942Y10372D01*
X12993Y10352D01*
X13218Y10297D01*
X13439Y10237D01*
X13483Y10233D01*
X13547Y10217D01*
X14114Y10162D01*
X14180Y10165D01*
X14224Y10161D01*
X858776Y10161D01*
X859005Y10177D01*
G37*
G36*
X51537Y402353D02*
X51537Y402353D01*
X51768Y402363D01*
X51822Y402373D01*
X51876Y402377D01*
X52102Y402425D01*
X52328Y402467D01*
X52380Y402484D01*
X52434Y402496D01*
X52650Y402575D01*
X52868Y402648D01*
X52917Y402673D01*
X52969Y402692D01*
X53172Y402800D01*
X53377Y402903D01*
X53423Y402934D01*
X53471Y402960D01*
X53657Y403096D01*
X53846Y403227D01*
X53887Y403264D01*
X53931Y403297D01*
X54096Y403457D01*
X54265Y403613D01*
X54300Y403656D01*
X54339Y403694D01*
X54480Y403876D01*
X54626Y404054D01*
X54654Y404102D01*
X54688Y404145D01*
X54802Y404345D01*
X54921Y404542D01*
X54943Y404592D01*
X54970Y404640D01*
X55055Y404854D01*
X55146Y405065D01*
X55160Y405118D01*
X55180Y405169D01*
X55235Y405394D01*
X55295Y405615D01*
X55299Y405659D01*
X55315Y405723D01*
X55370Y406290D01*
X55367Y406356D01*
X55371Y406400D01*
X55371Y410543D01*
X58542Y418199D01*
X64401Y424058D01*
X72057Y427229D01*
X80343Y427229D01*
X87999Y424058D01*
X93858Y418199D01*
X97029Y410543D01*
X97029Y406400D01*
X97045Y406171D01*
X97055Y405940D01*
X97065Y405886D01*
X97069Y405832D01*
X97117Y405606D01*
X97159Y405380D01*
X97176Y405328D01*
X97188Y405274D01*
X97267Y405058D01*
X97340Y404840D01*
X97365Y404791D01*
X97384Y404739D01*
X97492Y404536D01*
X97595Y404331D01*
X97626Y404285D01*
X97652Y404237D01*
X97788Y404051D01*
X97919Y403862D01*
X97956Y403821D01*
X97989Y403777D01*
X98149Y403612D01*
X98305Y403443D01*
X98348Y403408D01*
X98386Y403369D01*
X98568Y403228D01*
X98746Y403082D01*
X98794Y403054D01*
X98837Y403020D01*
X99037Y402906D01*
X99234Y402787D01*
X99284Y402765D01*
X99332Y402738D01*
X99546Y402653D01*
X99757Y402562D01*
X99810Y402548D01*
X99861Y402528D01*
X100086Y402473D01*
X100307Y402413D01*
X100351Y402409D01*
X100415Y402394D01*
X100982Y402338D01*
X101048Y402341D01*
X101092Y402337D01*
X858776Y402337D01*
X859005Y402353D01*
X859236Y402363D01*
X859290Y402373D01*
X859344Y402377D01*
X859570Y402425D01*
X859796Y402467D01*
X859848Y402484D01*
X859902Y402496D01*
X860118Y402575D01*
X860336Y402648D01*
X860385Y402673D01*
X860437Y402692D01*
X860640Y402800D01*
X860845Y402903D01*
X860891Y402934D01*
X860939Y402960D01*
X861125Y403096D01*
X861314Y403227D01*
X861355Y403264D01*
X861399Y403297D01*
X861564Y403457D01*
X861733Y403613D01*
X861768Y403656D01*
X861807Y403694D01*
X861948Y403876D01*
X862094Y404054D01*
X862122Y404102D01*
X862156Y404145D01*
X862270Y404345D01*
X862389Y404542D01*
X862411Y404592D01*
X862438Y404640D01*
X862523Y404854D01*
X862614Y405065D01*
X862628Y405118D01*
X862648Y405169D01*
X862703Y405394D01*
X862763Y405615D01*
X862767Y405659D01*
X862783Y405723D01*
X862838Y406290D01*
X862835Y406356D01*
X862839Y406400D01*
X862839Y519076D01*
X862823Y519305D01*
X862813Y519536D01*
X862803Y519590D01*
X862799Y519644D01*
X862751Y519870D01*
X862709Y520096D01*
X862692Y520148D01*
X862680Y520202D01*
X862601Y520418D01*
X862528Y520636D01*
X862503Y520685D01*
X862484Y520737D01*
X862376Y520940D01*
X862273Y521145D01*
X862242Y521191D01*
X862216Y521239D01*
X862080Y521425D01*
X861949Y521614D01*
X861912Y521655D01*
X861879Y521699D01*
X861719Y521864D01*
X861563Y522033D01*
X861520Y522068D01*
X861482Y522107D01*
X861300Y522248D01*
X861122Y522394D01*
X861074Y522422D01*
X861031Y522456D01*
X860831Y522570D01*
X860634Y522689D01*
X860584Y522711D01*
X860536Y522738D01*
X860322Y522823D01*
X860111Y522914D01*
X860058Y522928D01*
X860007Y522948D01*
X859782Y523003D01*
X859561Y523063D01*
X859517Y523067D01*
X859453Y523083D01*
X858886Y523138D01*
X858820Y523135D01*
X858776Y523139D01*
X14224Y523139D01*
X13995Y523123D01*
X13764Y523113D01*
X13710Y523103D01*
X13656Y523099D01*
X13430Y523051D01*
X13204Y523009D01*
X13152Y522992D01*
X13098Y522980D01*
X12882Y522901D01*
X12664Y522828D01*
X12615Y522803D01*
X12563Y522784D01*
X12360Y522676D01*
X12155Y522573D01*
X12109Y522542D01*
X12061Y522516D01*
X11875Y522380D01*
X11686Y522249D01*
X11645Y522212D01*
X11601Y522179D01*
X11436Y522019D01*
X11267Y521863D01*
X11232Y521820D01*
X11193Y521782D01*
X11052Y521600D01*
X10906Y521422D01*
X10878Y521374D01*
X10844Y521331D01*
X10730Y521131D01*
X10611Y520934D01*
X10589Y520884D01*
X10562Y520836D01*
X10477Y520622D01*
X10386Y520411D01*
X10372Y520358D01*
X10352Y520307D01*
X10297Y520082D01*
X10237Y519861D01*
X10233Y519817D01*
X10217Y519753D01*
X10162Y519186D01*
X10165Y519120D01*
X10161Y519076D01*
X10161Y406400D01*
X10177Y406171D01*
X10187Y405940D01*
X10197Y405886D01*
X10201Y405832D01*
X10249Y405606D01*
X10291Y405380D01*
X10308Y405328D01*
X10320Y405274D01*
X10399Y405058D01*
X10472Y404840D01*
X10497Y404791D01*
X10516Y404739D01*
X10624Y404536D01*
X10727Y404331D01*
X10758Y404285D01*
X10784Y404237D01*
X10920Y404051D01*
X11051Y403862D01*
X11088Y403821D01*
X11121Y403777D01*
X11281Y403612D01*
X11437Y403443D01*
X11480Y403408D01*
X11518Y403369D01*
X11700Y403228D01*
X11878Y403082D01*
X11926Y403054D01*
X11969Y403020D01*
X12169Y402906D01*
X12366Y402787D01*
X12416Y402765D01*
X12464Y402738D01*
X12678Y402653D01*
X12889Y402562D01*
X12942Y402548D01*
X12993Y402528D01*
X13218Y402473D01*
X13439Y402413D01*
X13483Y402409D01*
X13547Y402394D01*
X14114Y402338D01*
X14180Y402341D01*
X14224Y402337D01*
X51308Y402337D01*
X51537Y402353D01*
G37*
%LPC*%
G36*
X59357Y195833D02*
X59357Y195833D01*
X53358Y198318D01*
X53246Y198355D01*
X53138Y198402D01*
X52977Y198445D01*
X52818Y198499D01*
X52702Y198520D01*
X52588Y198551D01*
X52474Y198562D01*
X52257Y198602D01*
X51919Y198616D01*
X51803Y198627D01*
X50007Y198627D01*
X43378Y201373D01*
X38305Y206446D01*
X35559Y213075D01*
X35559Y220249D01*
X38305Y226878D01*
X43378Y231951D01*
X50007Y234697D01*
X51803Y234697D01*
X51921Y234705D01*
X52039Y234704D01*
X52205Y234725D01*
X52372Y234737D01*
X52487Y234761D01*
X52604Y234776D01*
X52714Y234810D01*
X52929Y234856D01*
X53247Y234972D01*
X53358Y235006D01*
X59357Y237491D01*
X104751Y237491D01*
X104812Y237495D01*
X104872Y237493D01*
X105095Y237515D01*
X105320Y237531D01*
X105379Y237543D01*
X105439Y237549D01*
X105657Y237603D01*
X105877Y237650D01*
X105934Y237670D01*
X105992Y237685D01*
X106201Y237768D01*
X106412Y237846D01*
X106465Y237874D01*
X106521Y237896D01*
X106716Y238008D01*
X106914Y238114D01*
X106963Y238150D01*
X107016Y238180D01*
X107107Y238255D01*
X107374Y238451D01*
X107535Y238608D01*
X107625Y238681D01*
X128339Y259396D01*
X135995Y262567D01*
X194643Y262567D01*
X202299Y259396D01*
X205725Y255969D01*
X205815Y255891D01*
X205897Y255807D01*
X206029Y255705D01*
X206156Y255595D01*
X206255Y255531D01*
X206348Y255459D01*
X206449Y255405D01*
X206634Y255285D01*
X206941Y255143D01*
X207040Y255090D01*
X211471Y250659D01*
X213869Y244871D01*
X213869Y238605D01*
X211471Y232817D01*
X207040Y228386D01*
X206938Y228335D01*
X206829Y228292D01*
X206683Y228208D01*
X206534Y228134D01*
X206437Y228067D01*
X206334Y228008D01*
X206246Y227935D01*
X206065Y227810D01*
X205816Y227581D01*
X205725Y227507D01*
X202299Y224080D01*
X194643Y220909D01*
X150449Y220909D01*
X150388Y220905D01*
X150328Y220907D01*
X150105Y220885D01*
X149880Y220869D01*
X149821Y220857D01*
X149761Y220851D01*
X149543Y220797D01*
X149323Y220750D01*
X149266Y220730D01*
X149208Y220715D01*
X148999Y220632D01*
X148788Y220554D01*
X148735Y220526D01*
X148679Y220504D01*
X148484Y220392D01*
X148286Y220286D01*
X148237Y220250D01*
X148184Y220220D01*
X148093Y220145D01*
X147826Y219949D01*
X147665Y219792D01*
X147575Y219719D01*
X126861Y199004D01*
X119205Y195833D01*
X59357Y195833D01*
G37*
%LPD*%
%LPC*%
G36*
X135627Y271201D02*
X135627Y271201D01*
X127971Y274372D01*
X107625Y294719D01*
X107579Y294759D01*
X107538Y294803D01*
X107364Y294945D01*
X107194Y295093D01*
X107144Y295126D01*
X107097Y295164D01*
X106905Y295281D01*
X106716Y295403D01*
X106661Y295428D01*
X106610Y295459D01*
X106403Y295548D01*
X106199Y295643D01*
X106142Y295660D01*
X106086Y295684D01*
X105869Y295742D01*
X105654Y295808D01*
X105594Y295817D01*
X105536Y295833D01*
X105419Y295844D01*
X105091Y295895D01*
X104866Y295898D01*
X104751Y295909D01*
X59357Y295909D01*
X53358Y298394D01*
X53256Y298428D01*
X53201Y298452D01*
X53196Y298453D01*
X53138Y298478D01*
X52977Y298521D01*
X52818Y298575D01*
X52702Y298596D01*
X52588Y298627D01*
X52474Y298638D01*
X52257Y298678D01*
X51919Y298692D01*
X51803Y298703D01*
X50007Y298703D01*
X43378Y301449D01*
X38305Y306522D01*
X35559Y313151D01*
X35559Y320325D01*
X38305Y326954D01*
X43378Y332027D01*
X50007Y334773D01*
X51803Y334773D01*
X51921Y334781D01*
X52039Y334780D01*
X52205Y334801D01*
X52372Y334813D01*
X52487Y334837D01*
X52604Y334852D01*
X52714Y334886D01*
X52929Y334932D01*
X53247Y335048D01*
X53358Y335082D01*
X59357Y337567D01*
X119205Y337567D01*
X126861Y334396D01*
X147207Y314049D01*
X147253Y314009D01*
X147294Y313965D01*
X147468Y313823D01*
X147638Y313675D01*
X147688Y313642D01*
X147735Y313604D01*
X147927Y313487D01*
X148116Y313365D01*
X148171Y313340D01*
X148222Y313309D01*
X148429Y313220D01*
X148633Y313125D01*
X148690Y313108D01*
X148746Y313084D01*
X148963Y313026D01*
X149178Y312960D01*
X149238Y312951D01*
X149296Y312935D01*
X149413Y312924D01*
X149741Y312873D01*
X149966Y312870D01*
X150081Y312859D01*
X194643Y312859D01*
X202299Y309688D01*
X205725Y306261D01*
X205815Y306183D01*
X205897Y306099D01*
X206029Y305997D01*
X206156Y305887D01*
X206255Y305823D01*
X206348Y305751D01*
X206449Y305697D01*
X206634Y305577D01*
X206941Y305435D01*
X207040Y305382D01*
X211471Y300951D01*
X213869Y295163D01*
X213869Y288897D01*
X211471Y283109D01*
X207040Y278678D01*
X206938Y278627D01*
X206829Y278584D01*
X206683Y278500D01*
X206534Y278426D01*
X206437Y278359D01*
X206334Y278300D01*
X206246Y278227D01*
X206065Y278102D01*
X205816Y277873D01*
X205725Y277799D01*
X202299Y274372D01*
X194643Y271201D01*
X135627Y271201D01*
G37*
%LPD*%
%LPC*%
G36*
X373316Y449516D02*
X373316Y449516D01*
X373316Y470028D01*
X378874Y470028D01*
X393828Y455074D01*
X393828Y449516D01*
X373316Y449516D01*
G37*
%LPD*%
%LPC*%
G36*
X627316Y449516D02*
X627316Y449516D01*
X627316Y470028D01*
X632874Y470028D01*
X647828Y455074D01*
X647828Y449516D01*
X627316Y449516D01*
G37*
%LPD*%
%LPC*%
G36*
X373316Y195516D02*
X373316Y195516D01*
X373316Y216028D01*
X378874Y216028D01*
X393828Y201074D01*
X393828Y195516D01*
X373316Y195516D01*
G37*
%LPD*%
%LPC*%
G36*
X627316Y195516D02*
X627316Y195516D01*
X627316Y216028D01*
X632874Y216028D01*
X647828Y201074D01*
X647828Y195516D01*
X627316Y195516D01*
G37*
%LPD*%
%LPC*%
G36*
X596772Y449516D02*
X596772Y449516D01*
X596772Y455074D01*
X611726Y470028D01*
X617284Y470028D01*
X617284Y449516D01*
X596772Y449516D01*
G37*
%LPD*%
%LPC*%
G36*
X342772Y449516D02*
X342772Y449516D01*
X342772Y455074D01*
X357726Y470028D01*
X363284Y470028D01*
X363284Y449516D01*
X342772Y449516D01*
G37*
%LPD*%
%LPC*%
G36*
X596772Y195516D02*
X596772Y195516D01*
X596772Y201074D01*
X611726Y216028D01*
X617284Y216028D01*
X617284Y195516D01*
X596772Y195516D01*
G37*
%LPD*%
%LPC*%
G36*
X342772Y195516D02*
X342772Y195516D01*
X342772Y201074D01*
X357726Y216028D01*
X363284Y216028D01*
X363284Y195516D01*
X342772Y195516D01*
G37*
%LPD*%
%LPC*%
G36*
X627316Y418972D02*
X627316Y418972D01*
X627316Y439484D01*
X647828Y439484D01*
X647828Y433926D01*
X632874Y418972D01*
X627316Y418972D01*
G37*
%LPD*%
%LPC*%
G36*
X373316Y418972D02*
X373316Y418972D01*
X373316Y439484D01*
X393828Y439484D01*
X393828Y433926D01*
X378874Y418972D01*
X373316Y418972D01*
G37*
%LPD*%
%LPC*%
G36*
X373316Y164972D02*
X373316Y164972D01*
X373316Y185484D01*
X393828Y185484D01*
X393828Y179926D01*
X378874Y164972D01*
X373316Y164972D01*
G37*
%LPD*%
%LPC*%
G36*
X627316Y164972D02*
X627316Y164972D01*
X627316Y185484D01*
X647828Y185484D01*
X647828Y179926D01*
X632874Y164972D01*
X627316Y164972D01*
G37*
%LPD*%
%LPC*%
G36*
X357726Y164972D02*
X357726Y164972D01*
X342772Y179926D01*
X342772Y185484D01*
X363284Y185484D01*
X363284Y164972D01*
X357726Y164972D01*
G37*
%LPD*%
%LPC*%
G36*
X611726Y418972D02*
X611726Y418972D01*
X596772Y433926D01*
X596772Y439484D01*
X617284Y439484D01*
X617284Y418972D01*
X611726Y418972D01*
G37*
%LPD*%
%LPC*%
G36*
X357726Y418972D02*
X357726Y418972D01*
X342772Y433926D01*
X342772Y439484D01*
X363284Y439484D01*
X363284Y418972D01*
X357726Y418972D01*
G37*
%LPD*%
%LPC*%
G36*
X611726Y164972D02*
X611726Y164972D01*
X596772Y179926D01*
X596772Y185484D01*
X617284Y185484D01*
X617284Y164972D01*
X611726Y164972D01*
G37*
%LPD*%
%LPC*%
G36*
X373316Y93916D02*
X373316Y93916D01*
X373316Y113939D01*
X375378Y113469D01*
X378084Y112522D01*
X380668Y111278D01*
X383095Y109752D01*
X385337Y107965D01*
X387365Y105937D01*
X389152Y103695D01*
X390678Y101268D01*
X391922Y98684D01*
X392869Y95978D01*
X393339Y93916D01*
X373316Y93916D01*
G37*
%LPD*%
%LPC*%
G36*
X627316Y93916D02*
X627316Y93916D01*
X627316Y113939D01*
X629378Y113469D01*
X632084Y112522D01*
X634668Y111278D01*
X637095Y109752D01*
X639337Y107965D01*
X641365Y105937D01*
X643152Y103695D01*
X644678Y101268D01*
X645922Y98684D01*
X646869Y95978D01*
X647339Y93916D01*
X627316Y93916D01*
G37*
%LPD*%
%LPC*%
G36*
X373316Y347916D02*
X373316Y347916D01*
X373316Y367939D01*
X375378Y367469D01*
X378084Y366522D01*
X380668Y365278D01*
X383095Y363752D01*
X385337Y361965D01*
X387365Y359937D01*
X389152Y357695D01*
X390678Y355268D01*
X391922Y352684D01*
X392869Y349978D01*
X393339Y347916D01*
X373316Y347916D01*
G37*
%LPD*%
%LPC*%
G36*
X627316Y347916D02*
X627316Y347916D01*
X627316Y367939D01*
X629378Y367469D01*
X632084Y366522D01*
X634668Y365278D01*
X637095Y363752D01*
X639337Y361965D01*
X641365Y359937D01*
X643152Y357695D01*
X644678Y355268D01*
X645922Y352684D01*
X646869Y349978D01*
X647339Y347916D01*
X627316Y347916D01*
G37*
%LPD*%
%LPC*%
G36*
X373316Y337884D02*
X373316Y337884D01*
X393339Y337884D01*
X392869Y335822D01*
X391922Y333116D01*
X390678Y330532D01*
X389152Y328105D01*
X387365Y325863D01*
X385337Y323835D01*
X383095Y322048D01*
X380668Y320522D01*
X378084Y319278D01*
X375378Y318331D01*
X373316Y317861D01*
X373316Y337884D01*
G37*
%LPD*%
%LPC*%
G36*
X627316Y337884D02*
X627316Y337884D01*
X647339Y337884D01*
X646869Y335822D01*
X645922Y333116D01*
X644678Y330532D01*
X643152Y328105D01*
X641365Y325863D01*
X639337Y323835D01*
X637095Y322048D01*
X634668Y320522D01*
X632084Y319278D01*
X629378Y318331D01*
X627316Y317861D01*
X627316Y337884D01*
G37*
%LPD*%
%LPC*%
G36*
X597261Y93916D02*
X597261Y93916D01*
X597731Y95978D01*
X598678Y98684D01*
X599922Y101268D01*
X601448Y103695D01*
X603235Y105937D01*
X605263Y107965D01*
X607505Y109752D01*
X609932Y111278D01*
X612516Y112522D01*
X615222Y113469D01*
X617284Y113939D01*
X617284Y93916D01*
X597261Y93916D01*
G37*
%LPD*%
%LPC*%
G36*
X343261Y93916D02*
X343261Y93916D01*
X343731Y95978D01*
X344678Y98684D01*
X345922Y101268D01*
X347448Y103695D01*
X349235Y105937D01*
X351263Y107965D01*
X353505Y109752D01*
X355932Y111278D01*
X358516Y112522D01*
X361222Y113469D01*
X363284Y113939D01*
X363284Y93916D01*
X343261Y93916D01*
G37*
%LPD*%
%LPC*%
G36*
X343261Y347916D02*
X343261Y347916D01*
X343731Y349978D01*
X344678Y352684D01*
X345217Y353802D01*
X345922Y355268D01*
X347448Y357695D01*
X349235Y359937D01*
X351263Y361965D01*
X353505Y363752D01*
X354396Y364313D01*
X354397Y364313D01*
X355932Y365278D01*
X358516Y366522D01*
X361222Y367469D01*
X363284Y367939D01*
X363284Y347916D01*
X343261Y347916D01*
G37*
%LPD*%
%LPC*%
G36*
X597261Y347916D02*
X597261Y347916D01*
X597731Y349978D01*
X598678Y352684D01*
X599217Y353802D01*
X599922Y355268D01*
X601448Y357695D01*
X603235Y359937D01*
X605263Y361965D01*
X607505Y363752D01*
X608396Y364313D01*
X608397Y364313D01*
X609932Y365278D01*
X612516Y366522D01*
X615222Y367469D01*
X617284Y367939D01*
X617284Y347916D01*
X597261Y347916D01*
G37*
%LPD*%
%LPC*%
G36*
X373316Y83884D02*
X373316Y83884D01*
X393339Y83884D01*
X392869Y81822D01*
X391922Y79116D01*
X390871Y76933D01*
X390870Y76933D01*
X390678Y76532D01*
X389152Y74105D01*
X387365Y71863D01*
X385337Y69835D01*
X383095Y68048D01*
X380668Y66522D01*
X378084Y65278D01*
X375378Y64331D01*
X373316Y63861D01*
X373316Y83884D01*
G37*
%LPD*%
%LPC*%
G36*
X627316Y83884D02*
X627316Y83884D01*
X647339Y83884D01*
X646869Y81822D01*
X645922Y79116D01*
X644871Y76933D01*
X644870Y76933D01*
X644678Y76532D01*
X643152Y74105D01*
X641365Y71863D01*
X639337Y69835D01*
X637095Y68048D01*
X634668Y66522D01*
X632084Y65278D01*
X629378Y64331D01*
X627316Y63861D01*
X627316Y83884D01*
G37*
%LPD*%
%LPC*%
G36*
X615222Y318331D02*
X615222Y318331D01*
X612516Y319278D01*
X609932Y320522D01*
X607505Y322048D01*
X605263Y323835D01*
X603235Y325863D01*
X601448Y328105D01*
X599922Y330532D01*
X598678Y333116D01*
X597731Y335822D01*
X597261Y337884D01*
X617284Y337884D01*
X617284Y317861D01*
X615222Y318331D01*
G37*
%LPD*%
%LPC*%
G36*
X361222Y318331D02*
X361222Y318331D01*
X358516Y319278D01*
X355932Y320522D01*
X353505Y322048D01*
X351263Y323835D01*
X349235Y325863D01*
X347448Y328105D01*
X345922Y330532D01*
X344678Y333116D01*
X343731Y335822D01*
X343261Y337884D01*
X363284Y337884D01*
X363284Y317861D01*
X361222Y318331D01*
G37*
%LPD*%
%LPC*%
G36*
X361222Y64331D02*
X361222Y64331D01*
X358516Y65278D01*
X355932Y66522D01*
X353505Y68048D01*
X351263Y69835D01*
X349235Y71863D01*
X347448Y74105D01*
X345922Y76532D01*
X344678Y79116D01*
X343731Y81822D01*
X343261Y83884D01*
X363284Y83884D01*
X363284Y63861D01*
X361222Y64331D01*
G37*
%LPD*%
%LPC*%
G36*
X615222Y64331D02*
X615222Y64331D01*
X612516Y65278D01*
X609932Y66522D01*
X607505Y68048D01*
X605263Y69835D01*
X603235Y71863D01*
X601448Y74105D01*
X599922Y76532D01*
X598678Y79116D01*
X597731Y81822D01*
X597261Y83884D01*
X617284Y83884D01*
X617284Y63861D01*
X615222Y64331D01*
G37*
%LPD*%
%LPC*%
G36*
X67563Y270763D02*
X67563Y270763D01*
X67563Y279147D01*
X74222Y279147D01*
X75840Y278934D01*
X77415Y278512D01*
X78923Y277887D01*
X80336Y277071D01*
X81630Y276078D01*
X82784Y274924D01*
X83777Y273630D01*
X84593Y272217D01*
X85195Y270763D01*
X67563Y270763D01*
G37*
%LPD*%
%LPC*%
G36*
X816863Y270763D02*
X816863Y270763D01*
X816863Y279147D01*
X823522Y279147D01*
X825140Y278934D01*
X826715Y278512D01*
X828223Y277887D01*
X829636Y277071D01*
X830930Y276078D01*
X832084Y274924D01*
X833077Y273630D01*
X833893Y272217D01*
X834495Y270763D01*
X816863Y270763D01*
G37*
%LPD*%
%LPC*%
G36*
X41805Y270763D02*
X41805Y270763D01*
X42407Y272217D01*
X43223Y273630D01*
X44216Y274924D01*
X45370Y276078D01*
X46664Y277071D01*
X48077Y277887D01*
X49585Y278512D01*
X51160Y278934D01*
X52778Y279147D01*
X59437Y279147D01*
X59437Y270763D01*
X41805Y270763D01*
G37*
%LPD*%
%LPC*%
G36*
X791105Y270763D02*
X791105Y270763D01*
X791707Y272217D01*
X792523Y273630D01*
X793516Y274924D01*
X794670Y276078D01*
X795964Y277071D01*
X797377Y277887D01*
X798885Y278512D01*
X800460Y278934D01*
X802078Y279147D01*
X808737Y279147D01*
X808737Y270763D01*
X791105Y270763D01*
G37*
%LPD*%
%LPC*%
G36*
X816863Y254253D02*
X816863Y254253D01*
X816863Y262637D01*
X834495Y262637D01*
X833893Y261183D01*
X833077Y259770D01*
X832084Y258476D01*
X830930Y257322D01*
X829636Y256329D01*
X828223Y255513D01*
X826715Y254888D01*
X825140Y254466D01*
X823522Y254253D01*
X816863Y254253D01*
G37*
%LPD*%
%LPC*%
G36*
X67563Y254253D02*
X67563Y254253D01*
X67563Y262637D01*
X85195Y262637D01*
X84593Y261183D01*
X83777Y259770D01*
X82784Y258476D01*
X81630Y257322D01*
X80336Y256329D01*
X78923Y255513D01*
X77415Y254888D01*
X75840Y254466D01*
X74222Y254253D01*
X67563Y254253D01*
G37*
%LPD*%
%LPC*%
G36*
X802078Y254253D02*
X802078Y254253D01*
X800460Y254466D01*
X798885Y254888D01*
X797377Y255513D01*
X795964Y256329D01*
X794670Y257322D01*
X793516Y258476D01*
X792523Y259770D01*
X791707Y261183D01*
X791105Y262637D01*
X808737Y262637D01*
X808737Y254253D01*
X802078Y254253D01*
G37*
%LPD*%
%LPC*%
G36*
X52778Y254253D02*
X52778Y254253D01*
X51160Y254466D01*
X49585Y254888D01*
X48077Y255513D01*
X46664Y256329D01*
X45370Y257322D01*
X44216Y258476D01*
X43223Y259770D01*
X42407Y261183D01*
X41805Y262637D01*
X59437Y262637D01*
X59437Y254253D01*
X52778Y254253D01*
G37*
%LPD*%
%LPC*%
G36*
X80263Y461263D02*
X80263Y461263D01*
X80263Y472441D01*
X82513Y472441D01*
X91441Y463513D01*
X91441Y461263D01*
X80263Y461263D01*
G37*
%LPD*%
%LPC*%
G36*
X80263Y441959D02*
X80263Y441959D01*
X80263Y453137D01*
X91441Y453137D01*
X91441Y450887D01*
X82513Y441959D01*
X80263Y441959D01*
G37*
%LPD*%
%LPC*%
G36*
X60959Y461263D02*
X60959Y461263D01*
X60959Y463513D01*
X69887Y472441D01*
X72137Y472441D01*
X72137Y461263D01*
X60959Y461263D01*
G37*
%LPD*%
%LPC*%
G36*
X69887Y441959D02*
X69887Y441959D01*
X60959Y450887D01*
X60959Y453137D01*
X72137Y453137D01*
X72137Y441959D01*
X69887Y441959D01*
G37*
%LPD*%
%LPC*%
G36*
X80263Y80263D02*
X80263Y80263D01*
X80263Y90890D01*
X81109Y90663D01*
X82955Y89898D01*
X84686Y88899D01*
X86270Y87683D01*
X87683Y86270D01*
X88899Y84686D01*
X89898Y82955D01*
X90663Y81109D01*
X90890Y80263D01*
X80263Y80263D01*
G37*
%LPD*%
%LPC*%
G36*
X61510Y80263D02*
X61510Y80263D01*
X61737Y81109D01*
X62502Y82955D01*
X63501Y84686D01*
X64717Y86270D01*
X66130Y87683D01*
X67714Y88899D01*
X69445Y89898D01*
X71291Y90663D01*
X72137Y90890D01*
X72137Y80263D01*
X61510Y80263D01*
G37*
%LPD*%
%LPC*%
G36*
X80263Y72137D02*
X80263Y72137D01*
X90890Y72137D01*
X90663Y71291D01*
X89898Y69445D01*
X88899Y67714D01*
X87683Y66130D01*
X86270Y64717D01*
X84686Y63501D01*
X82955Y62502D01*
X81109Y61737D01*
X80263Y61510D01*
X80263Y72137D01*
G37*
%LPD*%
%LPC*%
G36*
X71291Y61737D02*
X71291Y61737D01*
X69445Y62502D01*
X67714Y63501D01*
X66130Y64717D01*
X64717Y66130D01*
X63501Y67714D01*
X62502Y69445D01*
X61737Y71291D01*
X61510Y72137D01*
X72137Y72137D01*
X72137Y61510D01*
X71291Y61737D01*
G37*
%LPD*%
D10*
X198120Y341814D02*
X182880Y341814D01*
X182880Y191700D02*
X198120Y191700D01*
X198120Y292030D02*
X182880Y292030D01*
X182880Y241738D02*
X198120Y241738D01*
D11*
X368300Y88900D03*
D12*
X368300Y190500D03*
D11*
X622300Y88900D03*
D12*
X622300Y190500D03*
D11*
X368300Y342900D03*
D12*
X368300Y444500D03*
D11*
X622300Y342900D03*
D12*
X622300Y444500D03*
D13*
X76200Y76200D03*
D14*
X76200Y127000D03*
D13*
X76200Y406400D03*
D14*
X76200Y457200D03*
D15*
X73406Y216662D02*
X53594Y216662D01*
X53594Y266700D02*
X73406Y266700D01*
X73406Y316738D02*
X53594Y316738D01*
X802894Y316738D02*
X822706Y316738D01*
X822706Y266700D02*
X802894Y266700D01*
X802894Y216662D02*
X822706Y216662D01*
D16*
X115062Y216662D02*
X63500Y216662D01*
X140138Y241738D02*
X190500Y241738D01*
X140138Y241738D02*
X115062Y216662D01*
X115062Y316738D02*
X63500Y316738D01*
X139770Y292030D02*
X190500Y292030D01*
X139770Y292030D02*
X115062Y316738D01*
X76200Y165100D02*
X76200Y127000D01*
X76200Y368300D02*
X76200Y406400D01*
X190500Y191700D02*
X190500Y114300D01*
X812800Y114300D02*
X812800Y216662D01*
X190500Y341814D02*
X190500Y419100D01*
X812800Y419100D02*
X812800Y316738D01*
M02*
