G04 EAGLE Gerber X2 export*
%TF.Part,Single*%
%TF.FileFunction,Copper,L2,Bot,Mixed*%
%TF.FilePolarity,Positive*%
%TF.GenerationSoftware,Autodesk,EAGLE,8.6.0*%
%TF.CreationDate,2018-08-07T17:54:03Z*%
G75*
%MOMM*%
%FSLAX34Y34*%
%LPD*%
%AMOC8*
5,1,8,0,0,1.08239X$1,22.5*%
G01*
%ADD10C,1.524000*%
%ADD11C,4.597400*%
%ADD12P,4.976180X8X112.500000*%
%ADD13C,1.981200*%
%ADD14C,2.540000*%
%ADD15P,2.749271X8X112.500000*%
%ADD16C,1.270000*%
%ADD17C,2.540000*%

G36*
X633160Y122941D02*
X633160Y122941D01*
X633221Y122939D01*
X633444Y122961D01*
X633668Y122977D01*
X633728Y122989D01*
X633788Y122995D01*
X634006Y123049D01*
X634226Y123096D01*
X634282Y123116D01*
X634341Y123131D01*
X634550Y123214D01*
X634761Y123292D01*
X634814Y123320D01*
X634870Y123343D01*
X635065Y123454D01*
X635263Y123560D01*
X635312Y123596D01*
X635364Y123626D01*
X635455Y123701D01*
X635723Y123897D01*
X635884Y124054D01*
X635973Y124127D01*
X641387Y129541D01*
X643637Y129541D01*
X643637Y127000D01*
X643653Y126770D01*
X643663Y126540D01*
X643673Y126486D01*
X643677Y126432D01*
X643725Y126206D01*
X643767Y125980D01*
X643784Y125928D01*
X643796Y125874D01*
X643875Y125658D01*
X643948Y125440D01*
X643973Y125391D01*
X643991Y125339D01*
X644100Y125136D01*
X644203Y124931D01*
X644234Y124885D01*
X644260Y124837D01*
X644396Y124651D01*
X644527Y124462D01*
X644564Y124421D01*
X644597Y124377D01*
X644757Y124212D01*
X644913Y124043D01*
X644956Y124008D01*
X644994Y123969D01*
X645176Y123828D01*
X645354Y123682D01*
X645401Y123654D01*
X645445Y123620D01*
X645645Y123506D01*
X645841Y123387D01*
X645892Y123365D01*
X645940Y123338D01*
X646154Y123253D01*
X646365Y123162D01*
X646418Y123148D01*
X646469Y123128D01*
X646694Y123073D01*
X646915Y123013D01*
X646959Y123009D01*
X647023Y122994D01*
X647590Y122938D01*
X647656Y122941D01*
X647700Y122937D01*
X647930Y122953D01*
X648160Y122963D01*
X648214Y122973D01*
X648269Y122977D01*
X648494Y123025D01*
X648720Y123067D01*
X648772Y123084D01*
X648826Y123096D01*
X649042Y123175D01*
X649260Y123248D01*
X649309Y123273D01*
X649361Y123292D01*
X649564Y123400D01*
X649770Y123503D01*
X649815Y123534D01*
X649863Y123560D01*
X650049Y123696D01*
X650238Y123827D01*
X650279Y123864D01*
X650323Y123897D01*
X650488Y124057D01*
X650657Y124213D01*
X650692Y124256D01*
X650731Y124294D01*
X650872Y124476D01*
X651018Y124654D01*
X651047Y124702D01*
X651080Y124745D01*
X651194Y124945D01*
X651313Y125142D01*
X651335Y125192D01*
X651362Y125240D01*
X651448Y125454D01*
X651538Y125665D01*
X651552Y125718D01*
X651573Y125769D01*
X651627Y125994D01*
X651687Y126215D01*
X651691Y126259D01*
X651707Y126323D01*
X651762Y126890D01*
X651759Y126956D01*
X651763Y127000D01*
X651763Y129541D01*
X654013Y129541D01*
X659427Y124127D01*
X659472Y124087D01*
X659513Y124043D01*
X659687Y123901D01*
X659857Y123753D01*
X659908Y123720D01*
X659954Y123682D01*
X660147Y123565D01*
X660335Y123443D01*
X660390Y123418D01*
X660442Y123387D01*
X660648Y123298D01*
X660852Y123204D01*
X660910Y123186D01*
X660965Y123162D01*
X661182Y123104D01*
X661397Y123038D01*
X661457Y123029D01*
X661515Y123013D01*
X661632Y123002D01*
X661960Y122951D01*
X662185Y122948D01*
X662300Y122937D01*
X666498Y122937D01*
X666727Y122953D01*
X666958Y122963D01*
X667012Y122973D01*
X667066Y122977D01*
X667292Y123025D01*
X667518Y123067D01*
X667570Y123084D01*
X667624Y123096D01*
X667840Y123175D01*
X668058Y123248D01*
X668107Y123273D01*
X668159Y123292D01*
X668362Y123400D01*
X668567Y123503D01*
X668613Y123534D01*
X668661Y123560D01*
X668847Y123696D01*
X669036Y123827D01*
X669077Y123864D01*
X669121Y123897D01*
X669286Y124057D01*
X669455Y124213D01*
X669490Y124256D01*
X669529Y124294D01*
X669670Y124476D01*
X669816Y124654D01*
X669844Y124702D01*
X669878Y124745D01*
X669992Y124945D01*
X670111Y125142D01*
X670133Y125192D01*
X670160Y125240D01*
X670245Y125454D01*
X670336Y125665D01*
X670350Y125718D01*
X670370Y125769D01*
X670425Y125994D01*
X670485Y126215D01*
X670489Y126259D01*
X670505Y126323D01*
X670560Y126890D01*
X670557Y126956D01*
X670561Y127000D01*
X670561Y130911D01*
X670557Y130972D01*
X670559Y131032D01*
X670537Y131255D01*
X670521Y131480D01*
X670509Y131539D01*
X670503Y131599D01*
X670449Y131817D01*
X670402Y132037D01*
X670382Y132094D01*
X670367Y132152D01*
X670284Y132361D01*
X670206Y132572D01*
X670178Y132625D01*
X670156Y132681D01*
X670044Y132876D01*
X669938Y133074D01*
X669902Y133123D01*
X669872Y133176D01*
X669797Y133267D01*
X669601Y133534D01*
X669444Y133695D01*
X669371Y133785D01*
X643819Y159337D01*
X643773Y159377D01*
X643732Y159421D01*
X643558Y159563D01*
X643388Y159711D01*
X643338Y159744D01*
X643291Y159782D01*
X643099Y159899D01*
X642910Y160021D01*
X642855Y160046D01*
X642804Y160077D01*
X642597Y160166D01*
X642393Y160261D01*
X642336Y160278D01*
X642280Y160302D01*
X642063Y160360D01*
X641848Y160426D01*
X641788Y160435D01*
X641730Y160451D01*
X641613Y160462D01*
X641285Y160513D01*
X641060Y160516D01*
X640945Y160527D01*
X640557Y160527D01*
X633928Y163273D01*
X628855Y168346D01*
X626109Y174975D01*
X626109Y182149D01*
X628855Y188778D01*
X633928Y193851D01*
X640557Y196597D01*
X642353Y196597D01*
X642471Y196605D01*
X642589Y196604D01*
X642755Y196625D01*
X642922Y196637D01*
X643037Y196661D01*
X643154Y196676D01*
X643264Y196710D01*
X643479Y196756D01*
X643797Y196872D01*
X643908Y196906D01*
X649907Y199391D01*
X658193Y199391D01*
X664192Y196906D01*
X664304Y196869D01*
X664412Y196822D01*
X664573Y196779D01*
X664732Y196725D01*
X664848Y196704D01*
X664962Y196673D01*
X665076Y196662D01*
X665292Y196622D01*
X665631Y196608D01*
X665747Y196597D01*
X667543Y196597D01*
X674172Y193851D01*
X679245Y188778D01*
X681991Y182149D01*
X681991Y181761D01*
X681995Y181700D01*
X681993Y181640D01*
X682015Y181417D01*
X682031Y181192D01*
X682043Y181133D01*
X682049Y181073D01*
X682103Y180855D01*
X682150Y180635D01*
X682170Y180578D01*
X682185Y180520D01*
X682268Y180311D01*
X682346Y180100D01*
X682374Y180047D01*
X682396Y179991D01*
X682508Y179796D01*
X682614Y179598D01*
X682650Y179549D01*
X682680Y179496D01*
X682755Y179405D01*
X682951Y179138D01*
X683108Y178977D01*
X683181Y178887D01*
X697153Y164915D01*
X697240Y164840D01*
X697320Y164757D01*
X697455Y164653D01*
X697583Y164542D01*
X697680Y164479D01*
X697771Y164409D01*
X697919Y164324D01*
X698061Y164232D01*
X698166Y164183D01*
X698266Y164126D01*
X698424Y164064D01*
X698578Y163992D01*
X698688Y163959D01*
X698795Y163916D01*
X698961Y163876D01*
X699123Y163827D01*
X699237Y163809D01*
X699349Y163782D01*
X699519Y163766D01*
X699686Y163740D01*
X699801Y163738D01*
X699916Y163727D01*
X700086Y163734D01*
X700256Y163732D01*
X700370Y163746D01*
X700486Y163751D01*
X700653Y163782D01*
X700821Y163804D01*
X700933Y163834D01*
X701046Y163855D01*
X701207Y163909D01*
X701371Y163954D01*
X701477Y164000D01*
X701586Y164037D01*
X701738Y164113D01*
X701894Y164180D01*
X701992Y164240D01*
X702095Y164292D01*
X702235Y164388D01*
X702380Y164477D01*
X702469Y164550D01*
X702564Y164616D01*
X702689Y164731D01*
X702821Y164839D01*
X702898Y164924D01*
X702983Y165002D01*
X703091Y165134D01*
X703206Y165259D01*
X703271Y165354D01*
X703344Y165443D01*
X703432Y165588D01*
X703528Y165728D01*
X703580Y165832D01*
X703639Y165930D01*
X703706Y166086D01*
X703782Y166239D01*
X703818Y166348D01*
X703864Y166454D01*
X703908Y166618D01*
X703962Y166779D01*
X703983Y166893D01*
X704013Y167004D01*
X704024Y167118D01*
X704064Y167340D01*
X704078Y167672D01*
X704089Y167789D01*
X704089Y289411D01*
X704081Y289527D01*
X704083Y289642D01*
X704061Y289810D01*
X704049Y289980D01*
X704025Y290092D01*
X704011Y290207D01*
X703966Y290371D01*
X703930Y290537D01*
X703891Y290645D01*
X703860Y290756D01*
X703793Y290912D01*
X703734Y291072D01*
X703680Y291174D01*
X703634Y291280D01*
X703546Y291425D01*
X703466Y291575D01*
X703398Y291667D01*
X703338Y291766D01*
X703230Y291897D01*
X703129Y292034D01*
X703049Y292117D01*
X702976Y292206D01*
X702851Y292321D01*
X702732Y292443D01*
X702641Y292513D01*
X702556Y292591D01*
X702416Y292687D01*
X702281Y292791D01*
X702181Y292848D01*
X702086Y292914D01*
X701934Y292989D01*
X701786Y293074D01*
X701679Y293116D01*
X701576Y293167D01*
X701415Y293221D01*
X701257Y293284D01*
X701144Y293311D01*
X701035Y293347D01*
X700868Y293378D01*
X700703Y293418D01*
X700588Y293429D01*
X700475Y293450D01*
X700305Y293457D01*
X700136Y293473D01*
X700021Y293468D01*
X699905Y293473D01*
X699736Y293456D01*
X699566Y293449D01*
X699453Y293428D01*
X699339Y293416D01*
X699173Y293376D01*
X699006Y293345D01*
X698897Y293308D01*
X698785Y293281D01*
X698627Y293217D01*
X698466Y293163D01*
X698363Y293112D01*
X698256Y293069D01*
X698109Y292984D01*
X697957Y292908D01*
X697862Y292843D01*
X697762Y292785D01*
X697673Y292712D01*
X697488Y292584D01*
X697244Y292359D01*
X697153Y292285D01*
X683181Y278313D01*
X683141Y278267D01*
X683097Y278226D01*
X682955Y278052D01*
X682807Y277882D01*
X682774Y277832D01*
X682736Y277785D01*
X682619Y277592D01*
X682497Y277404D01*
X682472Y277349D01*
X682441Y277298D01*
X682352Y277091D01*
X682257Y276887D01*
X682240Y276830D01*
X682216Y276774D01*
X682157Y276557D01*
X682092Y276342D01*
X682083Y276282D01*
X682067Y276224D01*
X682056Y276107D01*
X682005Y275779D01*
X682002Y275554D01*
X681991Y275439D01*
X681991Y275051D01*
X679245Y268422D01*
X674172Y263349D01*
X667543Y260603D01*
X665747Y260603D01*
X665629Y260595D01*
X665511Y260596D01*
X665345Y260575D01*
X665178Y260563D01*
X665063Y260539D01*
X664946Y260524D01*
X664836Y260490D01*
X664621Y260444D01*
X664303Y260328D01*
X664192Y260294D01*
X658193Y257809D01*
X649907Y257809D01*
X643908Y260294D01*
X643796Y260331D01*
X643688Y260378D01*
X643527Y260421D01*
X643368Y260475D01*
X643252Y260496D01*
X643138Y260527D01*
X643024Y260538D01*
X642808Y260578D01*
X642469Y260592D01*
X642353Y260603D01*
X640557Y260603D01*
X633928Y263349D01*
X628855Y268422D01*
X626109Y275051D01*
X626109Y282225D01*
X628855Y288854D01*
X633928Y293927D01*
X640557Y296673D01*
X640945Y296673D01*
X641006Y296677D01*
X641066Y296675D01*
X641289Y296697D01*
X641514Y296713D01*
X641573Y296725D01*
X641633Y296731D01*
X641851Y296785D01*
X642071Y296832D01*
X642128Y296852D01*
X642186Y296867D01*
X642395Y296950D01*
X642606Y297028D01*
X642659Y297056D01*
X642715Y297078D01*
X642910Y297190D01*
X643108Y297296D01*
X643157Y297332D01*
X643210Y297362D01*
X643301Y297437D01*
X643568Y297633D01*
X643729Y297790D01*
X643819Y297863D01*
X669371Y323415D01*
X669411Y323461D01*
X669455Y323502D01*
X669597Y323676D01*
X669745Y323846D01*
X669778Y323896D01*
X669816Y323943D01*
X669932Y324135D01*
X670055Y324324D01*
X670080Y324379D01*
X670111Y324430D01*
X670200Y324636D01*
X670295Y324841D01*
X670312Y324898D01*
X670336Y324954D01*
X670394Y325171D01*
X670460Y325386D01*
X670469Y325446D01*
X670485Y325504D01*
X670496Y325621D01*
X670547Y325949D01*
X670550Y326174D01*
X670561Y326289D01*
X670561Y330200D01*
X670545Y330429D01*
X670535Y330660D01*
X670525Y330714D01*
X670521Y330768D01*
X670473Y330994D01*
X670431Y331220D01*
X670414Y331272D01*
X670402Y331326D01*
X670323Y331542D01*
X670250Y331760D01*
X670225Y331809D01*
X670206Y331861D01*
X670098Y332064D01*
X669995Y332269D01*
X669964Y332315D01*
X669938Y332363D01*
X669802Y332549D01*
X669671Y332738D01*
X669634Y332779D01*
X669601Y332823D01*
X669441Y332988D01*
X669285Y333157D01*
X669242Y333192D01*
X669204Y333231D01*
X669022Y333372D01*
X668844Y333518D01*
X668796Y333546D01*
X668753Y333580D01*
X668553Y333694D01*
X668356Y333813D01*
X668306Y333835D01*
X668258Y333862D01*
X668044Y333947D01*
X667833Y334038D01*
X667780Y334052D01*
X667729Y334072D01*
X667504Y334127D01*
X667283Y334187D01*
X667239Y334191D01*
X667175Y334207D01*
X666608Y334262D01*
X666542Y334259D01*
X666498Y334263D01*
X662287Y334263D01*
X662245Y334260D01*
X662204Y334262D01*
X661962Y334240D01*
X661719Y334223D01*
X661678Y334215D01*
X661636Y334211D01*
X661399Y334155D01*
X661161Y334104D01*
X661122Y334090D01*
X661081Y334080D01*
X660855Y333992D01*
X660626Y333908D01*
X660589Y333889D01*
X660551Y333873D01*
X660339Y333754D01*
X660124Y333640D01*
X660090Y333615D01*
X660054Y333594D01*
X659860Y333447D01*
X659664Y333303D01*
X659634Y333274D01*
X659601Y333249D01*
X659529Y333172D01*
X659256Y332906D01*
X659243Y332890D01*
X657770Y331417D01*
X656186Y330201D01*
X654455Y329202D01*
X652609Y328437D01*
X651763Y328210D01*
X651763Y330200D01*
X651747Y330429D01*
X651737Y330660D01*
X651727Y330714D01*
X651723Y330768D01*
X651675Y330994D01*
X651633Y331220D01*
X651616Y331272D01*
X651604Y331326D01*
X651525Y331542D01*
X651452Y331760D01*
X651427Y331809D01*
X651409Y331861D01*
X651300Y332064D01*
X651197Y332269D01*
X651166Y332315D01*
X651140Y332363D01*
X651004Y332549D01*
X650873Y332738D01*
X650836Y332779D01*
X650803Y332823D01*
X650643Y332988D01*
X650487Y333157D01*
X650444Y333192D01*
X650406Y333231D01*
X650224Y333372D01*
X650046Y333518D01*
X649999Y333546D01*
X649955Y333580D01*
X649755Y333694D01*
X649559Y333813D01*
X649508Y333835D01*
X649460Y333862D01*
X649246Y333947D01*
X649035Y334038D01*
X648982Y334052D01*
X648931Y334072D01*
X648706Y334127D01*
X648485Y334187D01*
X648441Y334191D01*
X648377Y334207D01*
X647810Y334262D01*
X647744Y334259D01*
X647700Y334263D01*
X647470Y334247D01*
X647240Y334237D01*
X647186Y334227D01*
X647131Y334223D01*
X646906Y334175D01*
X646680Y334133D01*
X646628Y334116D01*
X646574Y334104D01*
X646358Y334025D01*
X646140Y333952D01*
X646091Y333927D01*
X646039Y333908D01*
X645836Y333800D01*
X645630Y333697D01*
X645585Y333666D01*
X645537Y333640D01*
X645351Y333504D01*
X645162Y333373D01*
X645121Y333336D01*
X645077Y333303D01*
X644912Y333143D01*
X644743Y332987D01*
X644708Y332944D01*
X644669Y332906D01*
X644528Y332724D01*
X644382Y332546D01*
X644353Y332498D01*
X644320Y332455D01*
X644206Y332255D01*
X644086Y332058D01*
X644065Y332008D01*
X644038Y331960D01*
X643952Y331746D01*
X643862Y331535D01*
X643848Y331482D01*
X643827Y331431D01*
X643773Y331206D01*
X643713Y330985D01*
X643709Y330941D01*
X643693Y330877D01*
X643638Y330310D01*
X643639Y330284D01*
X643638Y330272D01*
X643640Y330233D01*
X643637Y330200D01*
X643637Y328210D01*
X642791Y328437D01*
X640945Y329202D01*
X639214Y330201D01*
X637630Y331417D01*
X636057Y332989D01*
X635960Y333099D01*
X635928Y333126D01*
X635900Y333157D01*
X635711Y333311D01*
X635526Y333469D01*
X635491Y333491D01*
X635459Y333518D01*
X635250Y333644D01*
X635045Y333774D01*
X635007Y333792D01*
X634971Y333813D01*
X634748Y333909D01*
X634526Y334010D01*
X634486Y334021D01*
X634448Y334038D01*
X634213Y334101D01*
X633979Y334170D01*
X633938Y334176D01*
X633898Y334187D01*
X633793Y334197D01*
X633416Y334252D01*
X633220Y334253D01*
X633113Y334263D01*
X113792Y334263D01*
X113563Y334247D01*
X113332Y334237D01*
X113278Y334227D01*
X113224Y334223D01*
X112998Y334175D01*
X112772Y334133D01*
X112720Y334116D01*
X112666Y334104D01*
X112450Y334025D01*
X112232Y333952D01*
X112183Y333927D01*
X112131Y333908D01*
X111928Y333800D01*
X111723Y333697D01*
X111677Y333666D01*
X111629Y333640D01*
X111443Y333504D01*
X111254Y333373D01*
X111213Y333336D01*
X111169Y333303D01*
X111004Y333143D01*
X110835Y332987D01*
X110800Y332944D01*
X110761Y332906D01*
X110620Y332724D01*
X110474Y332546D01*
X110446Y332498D01*
X110412Y332455D01*
X110298Y332255D01*
X110179Y332058D01*
X110157Y332008D01*
X110130Y331960D01*
X110045Y331746D01*
X109954Y331535D01*
X109940Y331482D01*
X109920Y331431D01*
X109865Y331206D01*
X109805Y330985D01*
X109801Y330941D01*
X109785Y330877D01*
X109730Y330310D01*
X109731Y330284D01*
X109730Y330272D01*
X109732Y330233D01*
X109729Y330200D01*
X109729Y301920D01*
X107524Y296598D01*
X95396Y284470D01*
X91841Y280914D01*
X91839Y280913D01*
X91837Y280911D01*
X91647Y280692D01*
X91467Y280484D01*
X91465Y280482D01*
X91464Y280480D01*
X91313Y280247D01*
X91157Y280006D01*
X91156Y280004D01*
X91154Y280001D01*
X91038Y279749D01*
X90917Y279489D01*
X90916Y279487D01*
X90915Y279484D01*
X90833Y279210D01*
X90752Y278944D01*
X90752Y278941D01*
X90751Y278939D01*
X90706Y278650D01*
X90665Y278381D01*
X90665Y278378D01*
X90664Y278375D01*
X90661Y278087D01*
X90657Y277811D01*
X90657Y277808D01*
X90657Y277806D01*
X90692Y277533D01*
X90729Y277246D01*
X90730Y277243D01*
X90730Y277241D01*
X90734Y277229D01*
X90879Y276696D01*
X90935Y276568D01*
X90960Y276486D01*
X93219Y271033D01*
X93219Y264767D01*
X90821Y258979D01*
X86310Y254468D01*
X86084Y254311D01*
X85858Y254156D01*
X85856Y254154D01*
X85854Y254153D01*
X85642Y253957D01*
X85439Y253770D01*
X85437Y253768D01*
X85435Y253766D01*
X85252Y253542D01*
X85077Y253330D01*
X85076Y253328D01*
X85074Y253325D01*
X84927Y253084D01*
X84781Y252843D01*
X84780Y252840D01*
X84779Y252838D01*
X84667Y252577D01*
X84556Y252320D01*
X84555Y252317D01*
X84554Y252314D01*
X84481Y252046D01*
X84406Y251770D01*
X84406Y251767D01*
X84405Y251764D01*
X84404Y251751D01*
X84335Y251205D01*
X84337Y251065D01*
X84329Y250980D01*
X84329Y217230D01*
X84333Y217170D01*
X84331Y217110D01*
X84353Y216886D01*
X84369Y216662D01*
X84381Y216603D01*
X84387Y216543D01*
X84441Y216325D01*
X84488Y216105D01*
X84508Y216048D01*
X84523Y215989D01*
X84606Y215781D01*
X84684Y215570D01*
X84712Y215516D01*
X84734Y215460D01*
X84846Y215265D01*
X84952Y215067D01*
X84988Y215019D01*
X85018Y214966D01*
X85093Y214875D01*
X85289Y214607D01*
X85446Y214446D01*
X85519Y214357D01*
X113874Y186002D01*
X116079Y180680D01*
X116079Y149520D01*
X113874Y144198D01*
X109230Y139554D01*
X101746Y132070D01*
X99549Y129873D01*
X99474Y129786D01*
X99391Y129706D01*
X99287Y129571D01*
X99176Y129443D01*
X99113Y129346D01*
X99042Y129255D01*
X98958Y129108D01*
X98866Y128965D01*
X98817Y128860D01*
X98760Y128760D01*
X98697Y128602D01*
X98626Y128448D01*
X98592Y128338D01*
X98550Y128231D01*
X98510Y128065D01*
X98461Y127903D01*
X98443Y127789D01*
X98416Y127677D01*
X98399Y127507D01*
X98373Y127340D01*
X98372Y127225D01*
X98361Y127110D01*
X98368Y126940D01*
X98366Y126770D01*
X98380Y126656D01*
X98385Y126540D01*
X98416Y126373D01*
X98438Y126205D01*
X98468Y126093D01*
X98489Y125980D01*
X98543Y125819D01*
X98588Y125655D01*
X98634Y125549D01*
X98670Y125440D01*
X98747Y125288D01*
X98814Y125132D01*
X98874Y125034D01*
X98926Y124931D01*
X99022Y124791D01*
X99111Y124646D01*
X99184Y124557D01*
X99249Y124462D01*
X99365Y124337D01*
X99473Y124205D01*
X99558Y124128D01*
X99636Y124043D01*
X99767Y123935D01*
X99893Y123820D01*
X99987Y123755D01*
X100077Y123682D01*
X100222Y123594D01*
X100362Y123498D01*
X100466Y123446D01*
X100564Y123387D01*
X100720Y123320D01*
X100872Y123244D01*
X100982Y123208D01*
X101088Y123162D01*
X101251Y123118D01*
X101413Y123064D01*
X101526Y123043D01*
X101638Y123013D01*
X101752Y123002D01*
X101974Y122962D01*
X102305Y122948D01*
X102422Y122937D01*
X633100Y122937D01*
X633160Y122941D01*
G37*
G36*
X46957Y351545D02*
X46957Y351545D01*
X47072Y351543D01*
X47240Y351565D01*
X47410Y351577D01*
X47523Y351601D01*
X47637Y351615D01*
X47801Y351660D01*
X47967Y351696D01*
X48075Y351735D01*
X48187Y351766D01*
X48342Y351833D01*
X48502Y351892D01*
X48604Y351946D01*
X48710Y351992D01*
X48855Y352080D01*
X49005Y352160D01*
X49098Y352228D01*
X49196Y352288D01*
X49328Y352397D01*
X49465Y352497D01*
X49547Y352577D01*
X49636Y352650D01*
X49751Y352775D01*
X49873Y352894D01*
X49943Y352985D01*
X50021Y353070D01*
X50118Y353211D01*
X50222Y353345D01*
X50279Y353445D01*
X50344Y353540D01*
X50420Y353692D01*
X50504Y353840D01*
X50546Y353947D01*
X50598Y354050D01*
X50651Y354211D01*
X50714Y354369D01*
X50741Y354482D01*
X50778Y354591D01*
X50808Y354758D01*
X50848Y354923D01*
X50859Y355038D01*
X50880Y355151D01*
X50887Y355321D01*
X50903Y355490D01*
X50898Y355605D01*
X50903Y355721D01*
X50886Y355890D01*
X50879Y356060D01*
X50858Y356173D01*
X50846Y356288D01*
X50806Y356453D01*
X50775Y356620D01*
X50738Y356729D01*
X50711Y356841D01*
X50648Y356999D01*
X50593Y357160D01*
X50542Y357263D01*
X50499Y357370D01*
X50415Y357517D01*
X50338Y357669D01*
X50273Y357764D01*
X50216Y357864D01*
X50142Y357953D01*
X50015Y358138D01*
X49789Y358382D01*
X49715Y358473D01*
X48879Y359309D01*
X46481Y365097D01*
X46481Y371363D01*
X48879Y377151D01*
X53309Y381581D01*
X59097Y383979D01*
X80603Y383979D01*
X86391Y381581D01*
X90821Y377151D01*
X93219Y371363D01*
X93219Y367020D01*
X93223Y366960D01*
X93221Y366900D01*
X93243Y366676D01*
X93259Y366452D01*
X93271Y366393D01*
X93277Y366333D01*
X93331Y366115D01*
X93378Y365895D01*
X93398Y365838D01*
X93413Y365779D01*
X93496Y365571D01*
X93574Y365360D01*
X93602Y365306D01*
X93624Y365250D01*
X93736Y365055D01*
X93842Y364857D01*
X93878Y364809D01*
X93908Y364756D01*
X93983Y364665D01*
X94179Y364397D01*
X94336Y364236D01*
X94409Y364147D01*
X105829Y352727D01*
X105875Y352687D01*
X105916Y352643D01*
X106090Y352501D01*
X106259Y352353D01*
X106310Y352320D01*
X106357Y352282D01*
X106549Y352165D01*
X106738Y352043D01*
X106792Y352018D01*
X106844Y351987D01*
X107050Y351898D01*
X107254Y351804D01*
X107312Y351786D01*
X107368Y351762D01*
X107584Y351704D01*
X107800Y351638D01*
X107859Y351629D01*
X107918Y351613D01*
X108035Y351602D01*
X108363Y351551D01*
X108588Y351548D01*
X108702Y351537D01*
X626018Y351537D01*
X626020Y351537D01*
X626023Y351537D01*
X626303Y351557D01*
X626586Y351577D01*
X626589Y351577D01*
X626591Y351577D01*
X626874Y351638D01*
X627143Y351696D01*
X627146Y351697D01*
X627149Y351697D01*
X627420Y351797D01*
X627678Y351892D01*
X627681Y351893D01*
X627683Y351894D01*
X627928Y352025D01*
X628181Y352160D01*
X628183Y352162D01*
X628185Y352163D01*
X628415Y352332D01*
X628641Y352497D01*
X628643Y352499D01*
X628645Y352500D01*
X628845Y352695D01*
X629049Y352894D01*
X629051Y352896D01*
X629053Y352898D01*
X629226Y353123D01*
X629398Y353345D01*
X629399Y353347D01*
X629401Y353349D01*
X629407Y353362D01*
X629680Y353840D01*
X629731Y353970D01*
X629772Y354045D01*
X630042Y354699D01*
X635901Y360558D01*
X643557Y363729D01*
X651843Y363729D01*
X659499Y360558D01*
X665358Y354699D01*
X665628Y354045D01*
X665630Y354043D01*
X665630Y354040D01*
X665761Y353779D01*
X665883Y353535D01*
X665884Y353533D01*
X665886Y353531D01*
X666048Y353296D01*
X666206Y353066D01*
X666208Y353064D01*
X666209Y353062D01*
X666404Y352851D01*
X666592Y352647D01*
X666594Y352645D01*
X666596Y352643D01*
X666821Y352458D01*
X667032Y352285D01*
X667035Y352284D01*
X667037Y352282D01*
X667281Y352134D01*
X667519Y351989D01*
X667522Y351988D01*
X667524Y351987D01*
X667781Y351877D01*
X668042Y351764D01*
X668045Y351763D01*
X668048Y351762D01*
X668322Y351688D01*
X668592Y351614D01*
X668595Y351614D01*
X668598Y351613D01*
X668611Y351612D01*
X669158Y351543D01*
X669297Y351545D01*
X669382Y351537D01*
X700026Y351537D01*
X700255Y351553D01*
X700486Y351563D01*
X700540Y351573D01*
X700594Y351577D01*
X700820Y351625D01*
X701046Y351667D01*
X701098Y351684D01*
X701152Y351696D01*
X701368Y351775D01*
X701586Y351848D01*
X701635Y351873D01*
X701687Y351892D01*
X701890Y352000D01*
X702095Y352103D01*
X702141Y352134D01*
X702189Y352160D01*
X702375Y352296D01*
X702564Y352427D01*
X702605Y352464D01*
X702649Y352497D01*
X702814Y352657D01*
X702983Y352813D01*
X703018Y352856D01*
X703057Y352894D01*
X703198Y353076D01*
X703344Y353254D01*
X703372Y353302D01*
X703406Y353345D01*
X703520Y353545D01*
X703639Y353742D01*
X703661Y353792D01*
X703688Y353840D01*
X703773Y354054D01*
X703864Y354265D01*
X703878Y354318D01*
X703898Y354369D01*
X703953Y354594D01*
X704013Y354815D01*
X704017Y354859D01*
X704033Y354923D01*
X704088Y355490D01*
X704085Y355556D01*
X704089Y355600D01*
X704089Y442876D01*
X704073Y443105D01*
X704063Y443336D01*
X704053Y443390D01*
X704049Y443444D01*
X704001Y443670D01*
X703959Y443896D01*
X703942Y443948D01*
X703930Y444002D01*
X703851Y444218D01*
X703778Y444436D01*
X703753Y444485D01*
X703734Y444537D01*
X703626Y444740D01*
X703523Y444945D01*
X703492Y444991D01*
X703466Y445039D01*
X703330Y445225D01*
X703199Y445414D01*
X703162Y445455D01*
X703129Y445499D01*
X702969Y445664D01*
X702813Y445833D01*
X702770Y445868D01*
X702732Y445907D01*
X702550Y446048D01*
X702372Y446194D01*
X702324Y446222D01*
X702281Y446256D01*
X702081Y446370D01*
X701884Y446489D01*
X701834Y446511D01*
X701786Y446538D01*
X701572Y446623D01*
X701361Y446714D01*
X701308Y446728D01*
X701257Y446748D01*
X701032Y446803D01*
X700811Y446863D01*
X700767Y446867D01*
X700703Y446883D01*
X700136Y446938D01*
X700070Y446935D01*
X700026Y446939D01*
X14224Y446939D01*
X13995Y446923D01*
X13764Y446913D01*
X13710Y446903D01*
X13656Y446899D01*
X13430Y446851D01*
X13204Y446809D01*
X13152Y446792D01*
X13098Y446780D01*
X12882Y446701D01*
X12664Y446628D01*
X12615Y446603D01*
X12563Y446584D01*
X12360Y446476D01*
X12155Y446373D01*
X12109Y446342D01*
X12061Y446316D01*
X11875Y446180D01*
X11686Y446049D01*
X11645Y446012D01*
X11601Y445979D01*
X11436Y445819D01*
X11267Y445663D01*
X11232Y445620D01*
X11193Y445582D01*
X11052Y445400D01*
X10906Y445222D01*
X10878Y445174D01*
X10844Y445131D01*
X10730Y444931D01*
X10611Y444734D01*
X10589Y444684D01*
X10562Y444636D01*
X10477Y444422D01*
X10386Y444211D01*
X10372Y444158D01*
X10352Y444107D01*
X10297Y443882D01*
X10237Y443661D01*
X10233Y443617D01*
X10217Y443553D01*
X10162Y442986D01*
X10165Y442920D01*
X10161Y442876D01*
X10161Y355600D01*
X10177Y355371D01*
X10187Y355140D01*
X10197Y355086D01*
X10201Y355032D01*
X10249Y354806D01*
X10291Y354580D01*
X10308Y354528D01*
X10320Y354474D01*
X10399Y354258D01*
X10472Y354040D01*
X10497Y353991D01*
X10516Y353939D01*
X10624Y353736D01*
X10727Y353531D01*
X10758Y353485D01*
X10784Y353437D01*
X10920Y353251D01*
X11051Y353062D01*
X11088Y353021D01*
X11121Y352977D01*
X11281Y352812D01*
X11437Y352643D01*
X11480Y352608D01*
X11518Y352569D01*
X11700Y352428D01*
X11878Y352282D01*
X11926Y352254D01*
X11969Y352220D01*
X12169Y352106D01*
X12366Y351987D01*
X12416Y351965D01*
X12464Y351938D01*
X12678Y351853D01*
X12889Y351762D01*
X12942Y351748D01*
X12993Y351728D01*
X13218Y351673D01*
X13439Y351613D01*
X13483Y351609D01*
X13547Y351594D01*
X14114Y351538D01*
X14180Y351541D01*
X14224Y351537D01*
X46842Y351537D01*
X46957Y351545D01*
G37*
G36*
X700255Y10177D02*
X700255Y10177D01*
X700486Y10187D01*
X700540Y10197D01*
X700594Y10201D01*
X700820Y10249D01*
X701046Y10291D01*
X701098Y10308D01*
X701152Y10320D01*
X701368Y10399D01*
X701586Y10472D01*
X701635Y10497D01*
X701687Y10516D01*
X701890Y10624D01*
X702095Y10727D01*
X702141Y10758D01*
X702189Y10784D01*
X702375Y10920D01*
X702564Y11051D01*
X702605Y11088D01*
X702649Y11121D01*
X702814Y11281D01*
X702983Y11437D01*
X703018Y11480D01*
X703057Y11518D01*
X703198Y11700D01*
X703344Y11878D01*
X703372Y11926D01*
X703406Y11969D01*
X703520Y12169D01*
X703639Y12366D01*
X703661Y12416D01*
X703688Y12464D01*
X703773Y12678D01*
X703864Y12889D01*
X703878Y12942D01*
X703898Y12993D01*
X703953Y13218D01*
X704013Y13439D01*
X704017Y13483D01*
X704033Y13547D01*
X704088Y14114D01*
X704085Y14180D01*
X704089Y14224D01*
X704089Y101600D01*
X704073Y101829D01*
X704063Y102060D01*
X704053Y102114D01*
X704049Y102168D01*
X704001Y102394D01*
X703959Y102620D01*
X703942Y102672D01*
X703930Y102726D01*
X703851Y102942D01*
X703778Y103160D01*
X703753Y103209D01*
X703734Y103261D01*
X703626Y103464D01*
X703523Y103669D01*
X703492Y103715D01*
X703466Y103763D01*
X703330Y103949D01*
X703199Y104138D01*
X703162Y104179D01*
X703129Y104223D01*
X702969Y104388D01*
X702813Y104557D01*
X702770Y104592D01*
X702732Y104631D01*
X702550Y104772D01*
X702372Y104918D01*
X702324Y104946D01*
X702281Y104980D01*
X702081Y105094D01*
X701884Y105213D01*
X701834Y105235D01*
X701786Y105262D01*
X701572Y105347D01*
X701361Y105438D01*
X701308Y105452D01*
X701257Y105472D01*
X701032Y105527D01*
X700811Y105587D01*
X700767Y105591D01*
X700703Y105607D01*
X700136Y105662D01*
X700070Y105659D01*
X700026Y105663D01*
X670203Y105663D01*
X670142Y105659D01*
X670082Y105661D01*
X669859Y105639D01*
X669634Y105623D01*
X669575Y105611D01*
X669515Y105605D01*
X669297Y105551D01*
X669077Y105504D01*
X669020Y105484D01*
X668962Y105469D01*
X668753Y105386D01*
X668542Y105308D01*
X668489Y105280D01*
X668433Y105258D01*
X668238Y105146D01*
X668039Y105040D01*
X667991Y105004D01*
X667938Y104974D01*
X667847Y104899D01*
X667580Y104703D01*
X667418Y104546D01*
X667329Y104473D01*
X656328Y93471D01*
X639072Y93471D01*
X628071Y104473D01*
X628025Y104513D01*
X627984Y104557D01*
X627810Y104699D01*
X627640Y104847D01*
X627590Y104880D01*
X627543Y104918D01*
X627351Y105035D01*
X627162Y105157D01*
X627107Y105182D01*
X627056Y105213D01*
X626850Y105302D01*
X626645Y105397D01*
X626588Y105414D01*
X626532Y105438D01*
X626315Y105496D01*
X626100Y105562D01*
X626040Y105571D01*
X625982Y105587D01*
X625865Y105598D01*
X625537Y105649D01*
X625312Y105652D01*
X625197Y105663D01*
X127912Y105663D01*
X127885Y105661D01*
X127857Y105663D01*
X127601Y105641D01*
X127344Y105623D01*
X127316Y105617D01*
X127289Y105615D01*
X127038Y105558D01*
X126787Y105504D01*
X126761Y105495D01*
X126733Y105488D01*
X126493Y105397D01*
X126252Y105308D01*
X126227Y105295D01*
X126201Y105285D01*
X125977Y105161D01*
X125749Y105040D01*
X125727Y105023D01*
X125702Y105010D01*
X125497Y104855D01*
X125289Y104703D01*
X125269Y104684D01*
X125247Y104667D01*
X125187Y104604D01*
X124881Y104306D01*
X124774Y104167D01*
X124705Y104095D01*
X123961Y103138D01*
X123633Y102951D01*
X123508Y102868D01*
X123377Y102793D01*
X123301Y102730D01*
X123159Y102636D01*
X122831Y102344D01*
X122768Y102292D01*
X122502Y102026D01*
X120907Y101365D01*
X120540Y101182D01*
X120454Y101143D01*
X118954Y100290D01*
X118579Y100244D01*
X118432Y100214D01*
X118283Y100195D01*
X118188Y100166D01*
X118020Y100133D01*
X117607Y99989D01*
X117528Y99966D01*
X117180Y99821D01*
X115454Y99821D01*
X115044Y99792D01*
X114950Y99790D01*
X113238Y99576D01*
X112874Y99676D01*
X112727Y99705D01*
X112582Y99745D01*
X112483Y99754D01*
X112316Y99788D01*
X111878Y99813D01*
X111797Y99821D01*
X92465Y99821D01*
X92405Y99817D01*
X92345Y99819D01*
X92121Y99797D01*
X91897Y99781D01*
X91838Y99769D01*
X91778Y99763D01*
X91559Y99709D01*
X91340Y99662D01*
X91283Y99642D01*
X91224Y99627D01*
X91016Y99544D01*
X90805Y99466D01*
X90751Y99438D01*
X90695Y99416D01*
X90500Y99304D01*
X90302Y99198D01*
X90253Y99162D01*
X90201Y99132D01*
X90137Y99079D01*
X83343Y96265D01*
X56357Y96265D01*
X49728Y99011D01*
X44266Y104473D01*
X44220Y104513D01*
X44179Y104557D01*
X44005Y104699D01*
X43836Y104847D01*
X43785Y104880D01*
X43738Y104918D01*
X43546Y105034D01*
X43358Y105157D01*
X43303Y105182D01*
X43251Y105213D01*
X43045Y105302D01*
X42841Y105397D01*
X42783Y105414D01*
X42727Y105438D01*
X42511Y105496D01*
X42295Y105562D01*
X42236Y105571D01*
X42177Y105587D01*
X42060Y105598D01*
X41732Y105649D01*
X41507Y105652D01*
X41393Y105663D01*
X38922Y105663D01*
X38807Y105655D01*
X38692Y105657D01*
X38524Y105635D01*
X38354Y105623D01*
X38241Y105599D01*
X38127Y105585D01*
X37963Y105540D01*
X37797Y105504D01*
X37689Y105465D01*
X37577Y105434D01*
X37421Y105367D01*
X37262Y105308D01*
X37160Y105254D01*
X37054Y105208D01*
X36909Y105120D01*
X36759Y105040D01*
X36666Y104972D01*
X36568Y104912D01*
X36437Y104804D01*
X36299Y104703D01*
X36217Y104623D01*
X36128Y104550D01*
X36013Y104425D01*
X35891Y104306D01*
X35820Y104215D01*
X35743Y104130D01*
X35646Y103990D01*
X35542Y103855D01*
X35485Y103755D01*
X35420Y103660D01*
X35344Y103508D01*
X35260Y103360D01*
X35218Y103253D01*
X35166Y103150D01*
X35113Y102989D01*
X35050Y102831D01*
X35023Y102718D01*
X34986Y102609D01*
X34956Y102442D01*
X34916Y102277D01*
X34905Y102162D01*
X34884Y102049D01*
X34877Y101879D01*
X34861Y101710D01*
X34866Y101595D01*
X34861Y101479D01*
X34878Y101310D01*
X34885Y101140D01*
X34906Y101027D01*
X34918Y100913D01*
X34958Y100747D01*
X34989Y100580D01*
X35026Y100471D01*
X35053Y100359D01*
X35116Y100201D01*
X35170Y100040D01*
X35222Y99937D01*
X35265Y99830D01*
X35349Y99683D01*
X35426Y99531D01*
X35491Y99436D01*
X35548Y99336D01*
X35622Y99247D01*
X35749Y99062D01*
X35974Y98818D01*
X36049Y98727D01*
X51695Y83081D01*
X51697Y83079D01*
X51699Y83077D01*
X51911Y82894D01*
X52125Y82707D01*
X52128Y82706D01*
X52130Y82704D01*
X52365Y82552D01*
X52604Y82397D01*
X52606Y82396D01*
X52608Y82395D01*
X52865Y82276D01*
X53120Y82158D01*
X53123Y82157D01*
X53125Y82156D01*
X53399Y82073D01*
X53666Y81992D01*
X53668Y81992D01*
X53671Y81991D01*
X53962Y81946D01*
X54229Y81905D01*
X54231Y81905D01*
X54234Y81905D01*
X54523Y81901D01*
X54798Y81897D01*
X54801Y81898D01*
X54804Y81898D01*
X55083Y81934D01*
X55364Y81969D01*
X55366Y81970D01*
X55369Y81970D01*
X55382Y81974D01*
X55913Y82120D01*
X56042Y82175D01*
X56123Y82200D01*
X56357Y82297D01*
X83343Y82297D01*
X89972Y79551D01*
X95045Y74478D01*
X97791Y67849D01*
X97791Y60675D01*
X95045Y54046D01*
X89972Y48973D01*
X83343Y46227D01*
X56357Y46227D01*
X50358Y48712D01*
X50246Y48749D01*
X50138Y48796D01*
X49977Y48839D01*
X49818Y48893D01*
X49702Y48914D01*
X49588Y48945D01*
X49474Y48956D01*
X49257Y48996D01*
X48919Y49010D01*
X48803Y49021D01*
X47920Y49021D01*
X42598Y51226D01*
X37954Y55870D01*
X17097Y76727D01*
X17010Y76802D01*
X16930Y76885D01*
X16795Y76989D01*
X16667Y77101D01*
X16570Y77163D01*
X16479Y77234D01*
X16331Y77318D01*
X16189Y77410D01*
X16084Y77459D01*
X15984Y77516D01*
X15826Y77579D01*
X15672Y77650D01*
X15562Y77684D01*
X15455Y77726D01*
X15289Y77766D01*
X15127Y77815D01*
X15013Y77833D01*
X14901Y77860D01*
X14731Y77877D01*
X14564Y77903D01*
X14449Y77904D01*
X14334Y77915D01*
X14164Y77908D01*
X13994Y77910D01*
X13880Y77896D01*
X13764Y77891D01*
X13597Y77860D01*
X13429Y77838D01*
X13317Y77808D01*
X13204Y77787D01*
X13043Y77733D01*
X12879Y77688D01*
X12773Y77642D01*
X12664Y77606D01*
X12512Y77529D01*
X12356Y77462D01*
X12258Y77402D01*
X12155Y77350D01*
X12015Y77254D01*
X11870Y77165D01*
X11781Y77092D01*
X11686Y77027D01*
X11561Y76911D01*
X11429Y76803D01*
X11352Y76718D01*
X11267Y76640D01*
X11159Y76509D01*
X11044Y76383D01*
X10979Y76289D01*
X10906Y76199D01*
X10818Y76054D01*
X10722Y75914D01*
X10670Y75811D01*
X10611Y75712D01*
X10544Y75556D01*
X10468Y75404D01*
X10432Y75294D01*
X10386Y75188D01*
X10342Y75024D01*
X10288Y74863D01*
X10267Y74750D01*
X10237Y74638D01*
X10226Y74524D01*
X10186Y74302D01*
X10172Y73971D01*
X10161Y73854D01*
X10161Y14224D01*
X10177Y13995D01*
X10187Y13764D01*
X10197Y13710D01*
X10201Y13656D01*
X10249Y13430D01*
X10291Y13204D01*
X10308Y13152D01*
X10320Y13098D01*
X10399Y12882D01*
X10472Y12664D01*
X10497Y12615D01*
X10516Y12563D01*
X10624Y12360D01*
X10727Y12155D01*
X10758Y12109D01*
X10784Y12061D01*
X10920Y11875D01*
X11051Y11686D01*
X11088Y11645D01*
X11121Y11601D01*
X11281Y11436D01*
X11437Y11267D01*
X11480Y11232D01*
X11518Y11193D01*
X11700Y11052D01*
X11878Y10906D01*
X11926Y10878D01*
X11969Y10844D01*
X12169Y10730D01*
X12366Y10611D01*
X12416Y10589D01*
X12464Y10562D01*
X12678Y10477D01*
X12889Y10386D01*
X12942Y10372D01*
X12993Y10352D01*
X13218Y10297D01*
X13439Y10237D01*
X13483Y10233D01*
X13547Y10217D01*
X14114Y10162D01*
X14180Y10165D01*
X14224Y10161D01*
X700026Y10161D01*
X700255Y10177D01*
G37*
%LPC*%
G36*
X481266Y170116D02*
X481266Y170116D01*
X481266Y190628D01*
X486824Y190628D01*
X501778Y175674D01*
X501778Y170116D01*
X481266Y170116D01*
G37*
%LPD*%
%LPC*%
G36*
X252666Y398716D02*
X252666Y398716D01*
X252666Y419228D01*
X258224Y419228D01*
X273178Y404274D01*
X273178Y398716D01*
X252666Y398716D01*
G37*
%LPD*%
%LPC*%
G36*
X481266Y398716D02*
X481266Y398716D01*
X481266Y419228D01*
X486824Y419228D01*
X501778Y404274D01*
X501778Y398716D01*
X481266Y398716D01*
G37*
%LPD*%
%LPC*%
G36*
X252666Y170116D02*
X252666Y170116D01*
X252666Y190628D01*
X258224Y190628D01*
X273178Y175674D01*
X273178Y170116D01*
X252666Y170116D01*
G37*
%LPD*%
%LPC*%
G36*
X450722Y398716D02*
X450722Y398716D01*
X450722Y404274D01*
X465676Y419228D01*
X471234Y419228D01*
X471234Y398716D01*
X450722Y398716D01*
G37*
%LPD*%
%LPC*%
G36*
X222122Y398716D02*
X222122Y398716D01*
X222122Y404274D01*
X237076Y419228D01*
X242634Y419228D01*
X242634Y398716D01*
X222122Y398716D01*
G37*
%LPD*%
%LPC*%
G36*
X222122Y170116D02*
X222122Y170116D01*
X222122Y175674D01*
X237076Y190628D01*
X242634Y190628D01*
X242634Y170116D01*
X222122Y170116D01*
G37*
%LPD*%
%LPC*%
G36*
X450722Y170116D02*
X450722Y170116D01*
X450722Y175674D01*
X465676Y190628D01*
X471234Y190628D01*
X471234Y170116D01*
X450722Y170116D01*
G37*
%LPD*%
%LPC*%
G36*
X252666Y139572D02*
X252666Y139572D01*
X252666Y160084D01*
X273178Y160084D01*
X273178Y154526D01*
X258224Y139572D01*
X252666Y139572D01*
G37*
%LPD*%
%LPC*%
G36*
X481266Y139572D02*
X481266Y139572D01*
X481266Y160084D01*
X501778Y160084D01*
X501778Y154526D01*
X486824Y139572D01*
X481266Y139572D01*
G37*
%LPD*%
%LPC*%
G36*
X252666Y368172D02*
X252666Y368172D01*
X252666Y388684D01*
X273178Y388684D01*
X273178Y383126D01*
X258224Y368172D01*
X252666Y368172D01*
G37*
%LPD*%
%LPC*%
G36*
X481266Y368172D02*
X481266Y368172D01*
X481266Y388684D01*
X501778Y388684D01*
X501778Y383126D01*
X486824Y368172D01*
X481266Y368172D01*
G37*
%LPD*%
%LPC*%
G36*
X237076Y139572D02*
X237076Y139572D01*
X222122Y154526D01*
X222122Y160084D01*
X242634Y160084D01*
X242634Y139572D01*
X237076Y139572D01*
G37*
%LPD*%
%LPC*%
G36*
X465676Y139572D02*
X465676Y139572D01*
X450722Y154526D01*
X450722Y160084D01*
X471234Y160084D01*
X471234Y139572D01*
X465676Y139572D01*
G37*
%LPD*%
%LPC*%
G36*
X237076Y368172D02*
X237076Y368172D01*
X222122Y383126D01*
X222122Y388684D01*
X242634Y388684D01*
X242634Y368172D01*
X237076Y368172D01*
G37*
%LPD*%
%LPC*%
G36*
X465676Y368172D02*
X465676Y368172D01*
X450722Y383126D01*
X450722Y388684D01*
X471234Y388684D01*
X471234Y368172D01*
X465676Y368172D01*
G37*
%LPD*%
%LPC*%
G36*
X252666Y68516D02*
X252666Y68516D01*
X252666Y88539D01*
X254728Y88069D01*
X257434Y87122D01*
X260018Y85878D01*
X262445Y84352D01*
X264687Y82565D01*
X266715Y80537D01*
X268502Y78295D01*
X270028Y75868D01*
X271272Y73284D01*
X272219Y70578D01*
X272689Y68516D01*
X252666Y68516D01*
G37*
%LPD*%
%LPC*%
G36*
X481266Y68516D02*
X481266Y68516D01*
X481266Y88539D01*
X483328Y88069D01*
X486034Y87122D01*
X488618Y85878D01*
X491045Y84352D01*
X493287Y82565D01*
X495315Y80537D01*
X497102Y78295D01*
X498628Y75868D01*
X499872Y73284D01*
X500819Y70578D01*
X501289Y68516D01*
X481266Y68516D01*
G37*
%LPD*%
%LPC*%
G36*
X252666Y297116D02*
X252666Y297116D01*
X252666Y317139D01*
X254728Y316669D01*
X257434Y315722D01*
X260018Y314478D01*
X262445Y312952D01*
X264687Y311165D01*
X266715Y309137D01*
X268502Y306895D01*
X270028Y304468D01*
X271272Y301884D01*
X272219Y299178D01*
X272689Y297116D01*
X252666Y297116D01*
G37*
%LPD*%
%LPC*%
G36*
X481266Y297116D02*
X481266Y297116D01*
X481266Y317139D01*
X483328Y316669D01*
X486034Y315722D01*
X488618Y314478D01*
X491045Y312952D01*
X493287Y311165D01*
X495315Y309137D01*
X497102Y306895D01*
X498628Y304468D01*
X499872Y301884D01*
X500819Y299178D01*
X501289Y297116D01*
X481266Y297116D01*
G37*
%LPD*%
%LPC*%
G36*
X451211Y297116D02*
X451211Y297116D01*
X451681Y299178D01*
X452628Y301884D01*
X453658Y304023D01*
X453872Y304468D01*
X455398Y306895D01*
X457185Y309137D01*
X459213Y311165D01*
X461455Y312952D01*
X463882Y314478D01*
X466466Y315722D01*
X469172Y316669D01*
X471234Y317139D01*
X471234Y297116D01*
X451211Y297116D01*
G37*
%LPD*%
%LPC*%
G36*
X222611Y297116D02*
X222611Y297116D01*
X223081Y299178D01*
X224028Y301884D01*
X225058Y304023D01*
X225272Y304468D01*
X226798Y306895D01*
X228585Y309137D01*
X230613Y311165D01*
X232855Y312952D01*
X235282Y314478D01*
X237866Y315722D01*
X240572Y316669D01*
X242634Y317139D01*
X242634Y297116D01*
X222611Y297116D01*
G37*
%LPD*%
%LPC*%
G36*
X481266Y287084D02*
X481266Y287084D01*
X501289Y287084D01*
X500819Y285022D01*
X499872Y282316D01*
X498628Y279732D01*
X497102Y277305D01*
X495315Y275063D01*
X493287Y273035D01*
X491045Y271248D01*
X488618Y269722D01*
X486034Y268478D01*
X483328Y267531D01*
X481266Y267061D01*
X481266Y287084D01*
G37*
%LPD*%
%LPC*%
G36*
X252666Y287084D02*
X252666Y287084D01*
X272689Y287084D01*
X272219Y285022D01*
X271272Y282316D01*
X270028Y279732D01*
X268502Y277305D01*
X266715Y275063D01*
X264687Y273035D01*
X262445Y271248D01*
X260018Y269722D01*
X257434Y268478D01*
X254728Y267531D01*
X252666Y267061D01*
X252666Y287084D01*
G37*
%LPD*%
%LPC*%
G36*
X252666Y58484D02*
X252666Y58484D01*
X272689Y58484D01*
X272219Y56422D01*
X271272Y53716D01*
X270712Y52554D01*
X270712Y52553D01*
X270028Y51132D01*
X268502Y48705D01*
X266715Y46463D01*
X264687Y44435D01*
X262445Y42648D01*
X261483Y42043D01*
X260018Y41122D01*
X257434Y39878D01*
X254728Y38931D01*
X252666Y38461D01*
X252666Y58484D01*
G37*
%LPD*%
%LPC*%
G36*
X481266Y58484D02*
X481266Y58484D01*
X501289Y58484D01*
X500819Y56422D01*
X499872Y53716D01*
X499312Y52554D01*
X499312Y52553D01*
X498628Y51132D01*
X497102Y48705D01*
X495315Y46463D01*
X493287Y44435D01*
X491045Y42648D01*
X490083Y42043D01*
X488618Y41122D01*
X486034Y39878D01*
X483328Y38931D01*
X481266Y38461D01*
X481266Y58484D01*
G37*
%LPD*%
%LPC*%
G36*
X222611Y68516D02*
X222611Y68516D01*
X223081Y70578D01*
X224028Y73284D01*
X224090Y73412D01*
X224090Y73413D01*
X225272Y75868D01*
X226798Y78295D01*
X228585Y80537D01*
X230613Y82565D01*
X232855Y84352D01*
X235282Y85878D01*
X237866Y87122D01*
X240572Y88069D01*
X242634Y88539D01*
X242634Y68516D01*
X222611Y68516D01*
G37*
%LPD*%
%LPC*%
G36*
X451211Y68516D02*
X451211Y68516D01*
X451681Y70578D01*
X452628Y73284D01*
X452690Y73412D01*
X452690Y73413D01*
X453872Y75868D01*
X455398Y78295D01*
X457185Y80537D01*
X459213Y82565D01*
X461455Y84352D01*
X463882Y85878D01*
X466466Y87122D01*
X469172Y88069D01*
X471234Y88539D01*
X471234Y68516D01*
X451211Y68516D01*
G37*
%LPD*%
%LPC*%
G36*
X469172Y267531D02*
X469172Y267531D01*
X466466Y268478D01*
X463882Y269722D01*
X461455Y271248D01*
X459213Y273035D01*
X457185Y275063D01*
X455398Y277305D01*
X453872Y279732D01*
X452628Y282316D01*
X451681Y285022D01*
X451211Y287084D01*
X471234Y287084D01*
X471234Y267061D01*
X469172Y267531D01*
G37*
%LPD*%
%LPC*%
G36*
X240572Y267531D02*
X240572Y267531D01*
X237866Y268478D01*
X235282Y269722D01*
X232855Y271248D01*
X230613Y273035D01*
X228585Y275063D01*
X226798Y277305D01*
X225272Y279732D01*
X224028Y282316D01*
X223081Y285022D01*
X222611Y287084D01*
X242634Y287084D01*
X242634Y267061D01*
X240572Y267531D01*
G37*
%LPD*%
%LPC*%
G36*
X240572Y38931D02*
X240572Y38931D01*
X237866Y39878D01*
X235282Y41122D01*
X232855Y42648D01*
X230613Y44435D01*
X228585Y46463D01*
X226798Y48705D01*
X225272Y51132D01*
X224028Y53716D01*
X223081Y56422D01*
X222611Y58484D01*
X242634Y58484D01*
X242634Y38461D01*
X240572Y38931D01*
G37*
%LPD*%
%LPC*%
G36*
X469172Y38931D02*
X469172Y38931D01*
X466466Y39878D01*
X463882Y41122D01*
X461455Y42648D01*
X459213Y44435D01*
X457185Y46463D01*
X455398Y48705D01*
X453872Y51132D01*
X452628Y53716D01*
X451681Y56422D01*
X451211Y58484D01*
X471234Y58484D01*
X471234Y38461D01*
X469172Y38931D01*
G37*
%LPD*%
%LPC*%
G36*
X658113Y232663D02*
X658113Y232663D01*
X658113Y241047D01*
X664772Y241047D01*
X666390Y240834D01*
X667965Y240412D01*
X669473Y239787D01*
X670886Y238971D01*
X672180Y237978D01*
X673334Y236824D01*
X674327Y235530D01*
X675143Y234117D01*
X675745Y232663D01*
X658113Y232663D01*
G37*
%LPD*%
%LPC*%
G36*
X632355Y232663D02*
X632355Y232663D01*
X632957Y234117D01*
X633773Y235530D01*
X634766Y236824D01*
X635920Y237978D01*
X637214Y238971D01*
X638627Y239787D01*
X640135Y240412D01*
X641710Y240834D01*
X643328Y241047D01*
X649987Y241047D01*
X649987Y232663D01*
X632355Y232663D01*
G37*
%LPD*%
%LPC*%
G36*
X658113Y216153D02*
X658113Y216153D01*
X658113Y224537D01*
X675745Y224537D01*
X675143Y223083D01*
X674327Y221670D01*
X673334Y220376D01*
X672180Y219222D01*
X670886Y218229D01*
X669473Y217413D01*
X667965Y216788D01*
X666390Y216366D01*
X664772Y216153D01*
X658113Y216153D01*
G37*
%LPD*%
%LPC*%
G36*
X643328Y216153D02*
X643328Y216153D01*
X641710Y216366D01*
X640135Y216788D01*
X638627Y217413D01*
X637214Y218229D01*
X635920Y219222D01*
X634766Y220376D01*
X633773Y221670D01*
X632957Y223083D01*
X632355Y224537D01*
X649987Y224537D01*
X649987Y216153D01*
X643328Y216153D01*
G37*
%LPD*%
%LPC*%
G36*
X651763Y397763D02*
X651763Y397763D01*
X651763Y408941D01*
X654013Y408941D01*
X662941Y400013D01*
X662941Y397763D01*
X651763Y397763D01*
G37*
%LPD*%
%LPC*%
G36*
X651763Y378459D02*
X651763Y378459D01*
X651763Y389637D01*
X662941Y389637D01*
X662941Y387387D01*
X654013Y378459D01*
X651763Y378459D01*
G37*
%LPD*%
%LPC*%
G36*
X632459Y397763D02*
X632459Y397763D01*
X632459Y400013D01*
X641387Y408941D01*
X643637Y408941D01*
X643637Y397763D01*
X632459Y397763D01*
G37*
%LPD*%
%LPC*%
G36*
X641387Y378459D02*
X641387Y378459D01*
X632459Y387387D01*
X632459Y389637D01*
X643637Y389637D01*
X643637Y378459D01*
X641387Y378459D01*
G37*
%LPD*%
%LPC*%
G36*
X651763Y67563D02*
X651763Y67563D01*
X651763Y78190D01*
X652609Y77963D01*
X654455Y77198D01*
X656186Y76199D01*
X657770Y74983D01*
X659183Y73570D01*
X660399Y71986D01*
X661398Y70255D01*
X662163Y68409D01*
X662390Y67563D01*
X651763Y67563D01*
G37*
%LPD*%
%LPC*%
G36*
X651763Y59437D02*
X651763Y59437D01*
X662390Y59437D01*
X662163Y58591D01*
X661398Y56745D01*
X660399Y55014D01*
X659183Y53430D01*
X657770Y52017D01*
X656186Y50801D01*
X654455Y49802D01*
X652609Y49037D01*
X651763Y48810D01*
X651763Y59437D01*
G37*
%LPD*%
%LPC*%
G36*
X633010Y67563D02*
X633010Y67563D01*
X633237Y68409D01*
X634002Y70255D01*
X635001Y71986D01*
X636217Y73570D01*
X637630Y74983D01*
X639214Y76199D01*
X640945Y77198D01*
X642791Y77963D01*
X643637Y78190D01*
X643637Y67563D01*
X633010Y67563D01*
G37*
%LPD*%
%LPC*%
G36*
X642791Y49037D02*
X642791Y49037D01*
X640945Y49802D01*
X639214Y50801D01*
X637630Y52017D01*
X636217Y53430D01*
X635001Y55014D01*
X634002Y56745D01*
X633237Y58591D01*
X633010Y59437D01*
X643637Y59437D01*
X643637Y48810D01*
X642791Y49037D01*
G37*
%LPD*%
%LPC*%
G36*
X73913Y422077D02*
X73913Y422077D01*
X73913Y428175D01*
X78270Y428175D01*
X79849Y427925D01*
X81370Y427430D01*
X82795Y426704D01*
X84089Y425764D01*
X85220Y424633D01*
X86160Y423339D01*
X86803Y422077D01*
X73913Y422077D01*
G37*
%LPD*%
%LPC*%
G36*
X52897Y422077D02*
X52897Y422077D01*
X53540Y423339D01*
X54480Y424633D01*
X55611Y425764D01*
X56905Y426704D01*
X58330Y427430D01*
X59851Y427925D01*
X61430Y428175D01*
X65787Y428175D01*
X65787Y422077D01*
X52897Y422077D01*
G37*
%LPD*%
%LPC*%
G36*
X73913Y407853D02*
X73913Y407853D01*
X73913Y413951D01*
X86803Y413951D01*
X86160Y412689D01*
X85220Y411395D01*
X84089Y410264D01*
X82795Y409324D01*
X81370Y408598D01*
X79849Y408103D01*
X78270Y407853D01*
X73913Y407853D01*
G37*
%LPD*%
%LPC*%
G36*
X61430Y407853D02*
X61430Y407853D01*
X59851Y408103D01*
X58330Y408598D01*
X56905Y409324D01*
X55611Y410264D01*
X54480Y411395D01*
X53540Y412689D01*
X52897Y413951D01*
X65787Y413951D01*
X65787Y407853D01*
X61430Y407853D01*
G37*
%LPD*%
D10*
X77470Y418014D02*
X62230Y418014D01*
X62230Y267900D02*
X77470Y267900D01*
X77470Y368230D02*
X62230Y368230D01*
X62230Y317938D02*
X77470Y317938D01*
D11*
X247650Y63500D03*
D12*
X247650Y165100D03*
D11*
X476250Y63500D03*
D12*
X476250Y165100D03*
D11*
X247650Y292100D03*
D12*
X247650Y393700D03*
D11*
X476250Y292100D03*
D12*
X476250Y393700D03*
D13*
X79756Y64262D02*
X59944Y64262D01*
X59944Y114300D02*
X79756Y114300D01*
X79756Y164338D02*
X59944Y164338D01*
X644144Y278638D02*
X663956Y278638D01*
X663956Y228600D02*
X644144Y228600D01*
X644144Y178562D02*
X663956Y178562D01*
D14*
X647700Y63500D03*
D15*
X647700Y114300D03*
D14*
X647700Y342900D03*
D15*
X647700Y393700D03*
D16*
X69850Y317938D02*
X69412Y317500D01*
X50800Y317500D01*
X19050Y285750D01*
X19050Y95250D01*
X50800Y63500D01*
X51562Y64262D01*
X69850Y64262D01*
X95250Y342830D02*
X69850Y368230D01*
X95250Y342830D02*
X95250Y304800D01*
X82550Y292100D01*
X57150Y292100D01*
X44450Y279400D01*
X44450Y189738D02*
X69850Y164338D01*
X44450Y189738D02*
X44450Y279400D01*
X158750Y171450D02*
X114300Y114300D01*
X69850Y114300D01*
X101600Y177800D02*
X69850Y209550D01*
X101600Y152400D02*
X88900Y139700D01*
X69850Y209550D02*
X69850Y267900D01*
X101600Y177800D02*
X101600Y152400D01*
X50800Y139700D02*
X38100Y127000D01*
X38100Y101600D02*
X50800Y88900D01*
X95250Y88900D01*
X88900Y139700D02*
X50800Y139700D01*
X38100Y127000D02*
X38100Y101600D01*
D17*
X654050Y178562D02*
X691390Y141222D01*
X691390Y95250D01*
X654050Y278638D02*
X691390Y315978D01*
X691390Y361950D01*
M02*
