G04 EAGLE Gerber X2 export*
%TF.Part,Single*%
%TF.FileFunction,Soldermask,Bot,1*%
%TF.FilePolarity,Negative*%
%TF.GenerationSoftware,Autodesk,EAGLE,8.6.0*%
%TF.CreationDate,2018-08-07T17:54:03Z*%
G75*
%MOMM*%
%FSLAX34Y34*%
%LPD*%
%AMOC8*
5,1,8,0,0,1.08239X$1,22.5*%
G01*
%ADD10C,1.727200*%
%ADD11C,4.800600*%
%ADD12P,5.196121X8X112.500000*%
%ADD13C,2.184400*%
%ADD14C,2.743200*%
%ADD15P,2.969212X8X112.500000*%


D10*
X77470Y418014D02*
X62230Y418014D01*
X62230Y267900D02*
X77470Y267900D01*
X77470Y368230D02*
X62230Y368230D01*
X62230Y317938D02*
X77470Y317938D01*
D11*
X247650Y63500D03*
D12*
X247650Y165100D03*
D11*
X476250Y63500D03*
D12*
X476250Y165100D03*
D11*
X247650Y292100D03*
D12*
X247650Y393700D03*
D11*
X476250Y292100D03*
D12*
X476250Y393700D03*
D13*
X79756Y64262D02*
X59944Y64262D01*
X59944Y114300D02*
X79756Y114300D01*
X79756Y164338D02*
X59944Y164338D01*
X644144Y278638D02*
X663956Y278638D01*
X663956Y228600D02*
X644144Y228600D01*
X644144Y178562D02*
X663956Y178562D01*
D14*
X647700Y63500D03*
D15*
X647700Y114300D03*
D14*
X647700Y342900D03*
D15*
X647700Y393700D03*
M02*
