G04 EAGLE Gerber X2 export*
%TF.Part,Single*%
%TF.FileFunction,Legend,Top,1*%
%TF.FilePolarity,Positive*%
%TF.GenerationSoftware,Autodesk,EAGLE,8.6.0*%
%TF.CreationDate,2018-08-07T16:38:23Z*%
G75*
%MOMM*%
%FSLAX34Y34*%
%LPD*%
%AMOC8*
5,1,8,0,0,1.08239X$1,22.5*%
G01*
%ADD10C,0.152400*%
%ADD11C,0.254000*%


D10*
X12700Y226060D02*
X12700Y269240D01*
X38100Y269240D02*
X38100Y226060D01*
X35560Y271780D02*
X15240Y271780D01*
X15240Y223520D02*
X35560Y223520D01*
X12700Y269240D02*
X12702Y269340D01*
X12708Y269439D01*
X12718Y269539D01*
X12731Y269637D01*
X12749Y269736D01*
X12770Y269833D01*
X12795Y269929D01*
X12824Y270025D01*
X12857Y270119D01*
X12893Y270212D01*
X12933Y270303D01*
X12977Y270393D01*
X13024Y270481D01*
X13074Y270567D01*
X13128Y270651D01*
X13185Y270733D01*
X13245Y270812D01*
X13309Y270890D01*
X13375Y270964D01*
X13444Y271036D01*
X13516Y271105D01*
X13590Y271171D01*
X13668Y271235D01*
X13747Y271295D01*
X13829Y271352D01*
X13913Y271406D01*
X13999Y271456D01*
X14087Y271503D01*
X14177Y271547D01*
X14268Y271587D01*
X14361Y271623D01*
X14455Y271656D01*
X14551Y271685D01*
X14647Y271710D01*
X14744Y271731D01*
X14843Y271749D01*
X14941Y271762D01*
X15041Y271772D01*
X15140Y271778D01*
X15240Y271780D01*
X12700Y226060D02*
X12702Y225960D01*
X12708Y225861D01*
X12718Y225761D01*
X12731Y225663D01*
X12749Y225564D01*
X12770Y225467D01*
X12795Y225371D01*
X12824Y225275D01*
X12857Y225181D01*
X12893Y225088D01*
X12933Y224997D01*
X12977Y224907D01*
X13024Y224819D01*
X13074Y224733D01*
X13128Y224649D01*
X13185Y224567D01*
X13245Y224488D01*
X13309Y224410D01*
X13375Y224336D01*
X13444Y224264D01*
X13516Y224195D01*
X13590Y224129D01*
X13668Y224065D01*
X13747Y224005D01*
X13829Y223948D01*
X13913Y223894D01*
X13999Y223844D01*
X14087Y223797D01*
X14177Y223753D01*
X14268Y223713D01*
X14361Y223677D01*
X14455Y223644D01*
X14551Y223615D01*
X14647Y223590D01*
X14744Y223569D01*
X14843Y223551D01*
X14941Y223538D01*
X15041Y223528D01*
X15140Y223522D01*
X15240Y223520D01*
X38100Y269240D02*
X38098Y269340D01*
X38092Y269439D01*
X38082Y269539D01*
X38069Y269637D01*
X38051Y269736D01*
X38030Y269833D01*
X38005Y269929D01*
X37976Y270025D01*
X37943Y270119D01*
X37907Y270212D01*
X37867Y270303D01*
X37823Y270393D01*
X37776Y270481D01*
X37726Y270567D01*
X37672Y270651D01*
X37615Y270733D01*
X37555Y270812D01*
X37491Y270890D01*
X37425Y270964D01*
X37356Y271036D01*
X37284Y271105D01*
X37210Y271171D01*
X37132Y271235D01*
X37053Y271295D01*
X36971Y271352D01*
X36887Y271406D01*
X36801Y271456D01*
X36713Y271503D01*
X36623Y271547D01*
X36532Y271587D01*
X36439Y271623D01*
X36345Y271656D01*
X36249Y271685D01*
X36153Y271710D01*
X36056Y271731D01*
X35957Y271749D01*
X35859Y271762D01*
X35759Y271772D01*
X35660Y271778D01*
X35560Y271780D01*
X38100Y226060D02*
X38098Y225960D01*
X38092Y225861D01*
X38082Y225761D01*
X38069Y225663D01*
X38051Y225564D01*
X38030Y225467D01*
X38005Y225371D01*
X37976Y225275D01*
X37943Y225181D01*
X37907Y225088D01*
X37867Y224997D01*
X37823Y224907D01*
X37776Y224819D01*
X37726Y224733D01*
X37672Y224649D01*
X37615Y224567D01*
X37555Y224488D01*
X37491Y224410D01*
X37425Y224336D01*
X37356Y224264D01*
X37284Y224195D01*
X37210Y224129D01*
X37132Y224065D01*
X37053Y224005D01*
X36971Y223948D01*
X36887Y223894D01*
X36801Y223844D01*
X36713Y223797D01*
X36623Y223753D01*
X36532Y223713D01*
X36439Y223677D01*
X36345Y223644D01*
X36249Y223615D01*
X36153Y223590D01*
X36056Y223569D01*
X35957Y223551D01*
X35859Y223538D01*
X35759Y223528D01*
X35660Y223522D01*
X35560Y223520D01*
X25400Y250190D02*
X25400Y251460D01*
D11*
X25400Y250190D02*
X17780Y250190D01*
X25400Y250190D02*
X33020Y250190D01*
X25400Y245110D02*
X17780Y245110D01*
X25400Y245110D02*
X33020Y245110D01*
D10*
X25400Y245110D02*
X25400Y243840D01*
X24130Y190500D02*
X21590Y190500D01*
X24130Y190500D02*
X24130Y187960D01*
X24130Y190500D02*
X26670Y190500D01*
X24130Y190500D02*
X24130Y193040D01*
X12700Y177800D02*
X12708Y178423D01*
X12731Y179046D01*
X12769Y179669D01*
X12822Y180290D01*
X12891Y180909D01*
X12975Y181527D01*
X13074Y182142D01*
X13188Y182755D01*
X13317Y183365D01*
X13461Y183972D01*
X13620Y184575D01*
X13794Y185173D01*
X13982Y185768D01*
X14185Y186357D01*
X14402Y186941D01*
X14633Y187520D01*
X14879Y188093D01*
X15139Y188660D01*
X15412Y189220D01*
X15699Y189773D01*
X16000Y190320D01*
X16314Y190858D01*
X16641Y191389D01*
X16981Y191911D01*
X17333Y192426D01*
X17699Y192931D01*
X18076Y193427D01*
X18466Y193914D01*
X18867Y194391D01*
X19280Y194858D01*
X19704Y195314D01*
X20139Y195761D01*
X20586Y196196D01*
X21042Y196620D01*
X21509Y197033D01*
X21986Y197434D01*
X22473Y197824D01*
X22969Y198201D01*
X23474Y198567D01*
X23989Y198919D01*
X24511Y199259D01*
X25042Y199586D01*
X25580Y199900D01*
X26127Y200201D01*
X26680Y200488D01*
X27240Y200761D01*
X27807Y201021D01*
X28380Y201267D01*
X28959Y201498D01*
X29543Y201715D01*
X30132Y201918D01*
X30727Y202106D01*
X31325Y202280D01*
X31928Y202439D01*
X32535Y202583D01*
X33145Y202712D01*
X33758Y202826D01*
X34373Y202925D01*
X34991Y203009D01*
X35610Y203078D01*
X36231Y203131D01*
X36854Y203169D01*
X37477Y203192D01*
X38100Y203200D01*
X38723Y203192D01*
X39346Y203169D01*
X39969Y203131D01*
X40590Y203078D01*
X41209Y203009D01*
X41827Y202925D01*
X42442Y202826D01*
X43055Y202712D01*
X43665Y202583D01*
X44272Y202439D01*
X44875Y202280D01*
X45473Y202106D01*
X46068Y201918D01*
X46657Y201715D01*
X47241Y201498D01*
X47820Y201267D01*
X48393Y201021D01*
X48960Y200761D01*
X49520Y200488D01*
X50073Y200201D01*
X50620Y199900D01*
X51158Y199586D01*
X51689Y199259D01*
X52211Y198919D01*
X52726Y198567D01*
X53231Y198201D01*
X53727Y197824D01*
X54214Y197434D01*
X54691Y197033D01*
X55158Y196620D01*
X55614Y196196D01*
X56061Y195761D01*
X56496Y195314D01*
X56920Y194858D01*
X57333Y194391D01*
X57734Y193914D01*
X58124Y193427D01*
X58501Y192931D01*
X58867Y192426D01*
X59219Y191911D01*
X59559Y191389D01*
X59886Y190858D01*
X60200Y190320D01*
X60501Y189773D01*
X60788Y189220D01*
X61061Y188660D01*
X61321Y188093D01*
X61567Y187520D01*
X61798Y186941D01*
X62015Y186357D01*
X62218Y185768D01*
X62406Y185173D01*
X62580Y184575D01*
X62739Y183972D01*
X62883Y183365D01*
X63012Y182755D01*
X63126Y182142D01*
X63225Y181527D01*
X63309Y180909D01*
X63378Y180290D01*
X63431Y179669D01*
X63469Y179046D01*
X63492Y178423D01*
X63500Y177800D01*
X63492Y177177D01*
X63469Y176554D01*
X63431Y175931D01*
X63378Y175310D01*
X63309Y174691D01*
X63225Y174073D01*
X63126Y173458D01*
X63012Y172845D01*
X62883Y172235D01*
X62739Y171628D01*
X62580Y171025D01*
X62406Y170427D01*
X62218Y169832D01*
X62015Y169243D01*
X61798Y168659D01*
X61567Y168080D01*
X61321Y167507D01*
X61061Y166940D01*
X60788Y166380D01*
X60501Y165827D01*
X60200Y165280D01*
X59886Y164742D01*
X59559Y164211D01*
X59219Y163689D01*
X58867Y163174D01*
X58501Y162669D01*
X58124Y162173D01*
X57734Y161686D01*
X57333Y161209D01*
X56920Y160742D01*
X56496Y160286D01*
X56061Y159839D01*
X55614Y159404D01*
X55158Y158980D01*
X54691Y158567D01*
X54214Y158166D01*
X53727Y157776D01*
X53231Y157399D01*
X52726Y157033D01*
X52211Y156681D01*
X51689Y156341D01*
X51158Y156014D01*
X50620Y155700D01*
X50073Y155399D01*
X49520Y155112D01*
X48960Y154839D01*
X48393Y154579D01*
X47820Y154333D01*
X47241Y154102D01*
X46657Y153885D01*
X46068Y153682D01*
X45473Y153494D01*
X44875Y153320D01*
X44272Y153161D01*
X43665Y153017D01*
X43055Y152888D01*
X42442Y152774D01*
X41827Y152675D01*
X41209Y152591D01*
X40590Y152522D01*
X39969Y152469D01*
X39346Y152431D01*
X38723Y152408D01*
X38100Y152400D01*
X37477Y152408D01*
X36854Y152431D01*
X36231Y152469D01*
X35610Y152522D01*
X34991Y152591D01*
X34373Y152675D01*
X33758Y152774D01*
X33145Y152888D01*
X32535Y153017D01*
X31928Y153161D01*
X31325Y153320D01*
X30727Y153494D01*
X30132Y153682D01*
X29543Y153885D01*
X28959Y154102D01*
X28380Y154333D01*
X27807Y154579D01*
X27240Y154839D01*
X26680Y155112D01*
X26127Y155399D01*
X25580Y155700D01*
X25042Y156014D01*
X24511Y156341D01*
X23989Y156681D01*
X23474Y157033D01*
X22969Y157399D01*
X22473Y157776D01*
X21986Y158166D01*
X21509Y158567D01*
X21042Y158980D01*
X20586Y159404D01*
X20139Y159839D01*
X19704Y160286D01*
X19280Y160742D01*
X18867Y161209D01*
X18466Y161686D01*
X18076Y162173D01*
X17699Y162669D01*
X17333Y163174D01*
X16981Y163689D01*
X16641Y164211D01*
X16314Y164742D01*
X16000Y165280D01*
X15699Y165827D01*
X15412Y166380D01*
X15139Y166940D01*
X14879Y167507D01*
X14633Y168080D01*
X14402Y168659D01*
X14185Y169243D01*
X13982Y169832D01*
X13794Y170427D01*
X13620Y171025D01*
X13461Y171628D01*
X13317Y172235D01*
X13188Y172845D01*
X13074Y173458D01*
X12975Y174073D01*
X12891Y174691D01*
X12822Y175310D01*
X12769Y175931D01*
X12731Y176554D01*
X12708Y177177D01*
X12700Y177800D01*
X127000Y226060D02*
X127000Y269240D01*
X152400Y269240D02*
X152400Y226060D01*
X149860Y271780D02*
X129540Y271780D01*
X129540Y223520D02*
X149860Y223520D01*
X127000Y269240D02*
X127002Y269340D01*
X127008Y269439D01*
X127018Y269539D01*
X127031Y269637D01*
X127049Y269736D01*
X127070Y269833D01*
X127095Y269929D01*
X127124Y270025D01*
X127157Y270119D01*
X127193Y270212D01*
X127233Y270303D01*
X127277Y270393D01*
X127324Y270481D01*
X127374Y270567D01*
X127428Y270651D01*
X127485Y270733D01*
X127545Y270812D01*
X127609Y270890D01*
X127675Y270964D01*
X127744Y271036D01*
X127816Y271105D01*
X127890Y271171D01*
X127968Y271235D01*
X128047Y271295D01*
X128129Y271352D01*
X128213Y271406D01*
X128299Y271456D01*
X128387Y271503D01*
X128477Y271547D01*
X128568Y271587D01*
X128661Y271623D01*
X128755Y271656D01*
X128851Y271685D01*
X128947Y271710D01*
X129044Y271731D01*
X129143Y271749D01*
X129241Y271762D01*
X129341Y271772D01*
X129440Y271778D01*
X129540Y271780D01*
X127000Y226060D02*
X127002Y225960D01*
X127008Y225861D01*
X127018Y225761D01*
X127031Y225663D01*
X127049Y225564D01*
X127070Y225467D01*
X127095Y225371D01*
X127124Y225275D01*
X127157Y225181D01*
X127193Y225088D01*
X127233Y224997D01*
X127277Y224907D01*
X127324Y224819D01*
X127374Y224733D01*
X127428Y224649D01*
X127485Y224567D01*
X127545Y224488D01*
X127609Y224410D01*
X127675Y224336D01*
X127744Y224264D01*
X127816Y224195D01*
X127890Y224129D01*
X127968Y224065D01*
X128047Y224005D01*
X128129Y223948D01*
X128213Y223894D01*
X128299Y223844D01*
X128387Y223797D01*
X128477Y223753D01*
X128568Y223713D01*
X128661Y223677D01*
X128755Y223644D01*
X128851Y223615D01*
X128947Y223590D01*
X129044Y223569D01*
X129143Y223551D01*
X129241Y223538D01*
X129341Y223528D01*
X129440Y223522D01*
X129540Y223520D01*
X152400Y269240D02*
X152398Y269340D01*
X152392Y269439D01*
X152382Y269539D01*
X152369Y269637D01*
X152351Y269736D01*
X152330Y269833D01*
X152305Y269929D01*
X152276Y270025D01*
X152243Y270119D01*
X152207Y270212D01*
X152167Y270303D01*
X152123Y270393D01*
X152076Y270481D01*
X152026Y270567D01*
X151972Y270651D01*
X151915Y270733D01*
X151855Y270812D01*
X151791Y270890D01*
X151725Y270964D01*
X151656Y271036D01*
X151584Y271105D01*
X151510Y271171D01*
X151432Y271235D01*
X151353Y271295D01*
X151271Y271352D01*
X151187Y271406D01*
X151101Y271456D01*
X151013Y271503D01*
X150923Y271547D01*
X150832Y271587D01*
X150739Y271623D01*
X150645Y271656D01*
X150549Y271685D01*
X150453Y271710D01*
X150356Y271731D01*
X150257Y271749D01*
X150159Y271762D01*
X150059Y271772D01*
X149960Y271778D01*
X149860Y271780D01*
X152400Y226060D02*
X152398Y225960D01*
X152392Y225861D01*
X152382Y225761D01*
X152369Y225663D01*
X152351Y225564D01*
X152330Y225467D01*
X152305Y225371D01*
X152276Y225275D01*
X152243Y225181D01*
X152207Y225088D01*
X152167Y224997D01*
X152123Y224907D01*
X152076Y224819D01*
X152026Y224733D01*
X151972Y224649D01*
X151915Y224567D01*
X151855Y224488D01*
X151791Y224410D01*
X151725Y224336D01*
X151656Y224264D01*
X151584Y224195D01*
X151510Y224129D01*
X151432Y224065D01*
X151353Y224005D01*
X151271Y223948D01*
X151187Y223894D01*
X151101Y223844D01*
X151013Y223797D01*
X150923Y223753D01*
X150832Y223713D01*
X150739Y223677D01*
X150645Y223644D01*
X150549Y223615D01*
X150453Y223590D01*
X150356Y223569D01*
X150257Y223551D01*
X150159Y223538D01*
X150059Y223528D01*
X149960Y223522D01*
X149860Y223520D01*
X139700Y250190D02*
X139700Y251460D01*
D11*
X139700Y250190D02*
X132080Y250190D01*
X139700Y250190D02*
X147320Y250190D01*
X139700Y245110D02*
X132080Y245110D01*
X139700Y245110D02*
X147320Y245110D01*
D10*
X139700Y245110D02*
X139700Y243840D01*
X165100Y233680D02*
X165100Y231140D01*
X165100Y233680D02*
X167640Y233680D01*
X165100Y233680D02*
X165100Y236220D01*
X165100Y233680D02*
X162560Y233680D01*
X152400Y247650D02*
X152408Y248273D01*
X152431Y248896D01*
X152469Y249519D01*
X152522Y250140D01*
X152591Y250759D01*
X152675Y251377D01*
X152774Y251992D01*
X152888Y252605D01*
X153017Y253215D01*
X153161Y253822D01*
X153320Y254425D01*
X153494Y255023D01*
X153682Y255618D01*
X153885Y256207D01*
X154102Y256791D01*
X154333Y257370D01*
X154579Y257943D01*
X154839Y258510D01*
X155112Y259070D01*
X155399Y259623D01*
X155700Y260170D01*
X156014Y260708D01*
X156341Y261239D01*
X156681Y261761D01*
X157033Y262276D01*
X157399Y262781D01*
X157776Y263277D01*
X158166Y263764D01*
X158567Y264241D01*
X158980Y264708D01*
X159404Y265164D01*
X159839Y265611D01*
X160286Y266046D01*
X160742Y266470D01*
X161209Y266883D01*
X161686Y267284D01*
X162173Y267674D01*
X162669Y268051D01*
X163174Y268417D01*
X163689Y268769D01*
X164211Y269109D01*
X164742Y269436D01*
X165280Y269750D01*
X165827Y270051D01*
X166380Y270338D01*
X166940Y270611D01*
X167507Y270871D01*
X168080Y271117D01*
X168659Y271348D01*
X169243Y271565D01*
X169832Y271768D01*
X170427Y271956D01*
X171025Y272130D01*
X171628Y272289D01*
X172235Y272433D01*
X172845Y272562D01*
X173458Y272676D01*
X174073Y272775D01*
X174691Y272859D01*
X175310Y272928D01*
X175931Y272981D01*
X176554Y273019D01*
X177177Y273042D01*
X177800Y273050D01*
X178423Y273042D01*
X179046Y273019D01*
X179669Y272981D01*
X180290Y272928D01*
X180909Y272859D01*
X181527Y272775D01*
X182142Y272676D01*
X182755Y272562D01*
X183365Y272433D01*
X183972Y272289D01*
X184575Y272130D01*
X185173Y271956D01*
X185768Y271768D01*
X186357Y271565D01*
X186941Y271348D01*
X187520Y271117D01*
X188093Y270871D01*
X188660Y270611D01*
X189220Y270338D01*
X189773Y270051D01*
X190320Y269750D01*
X190858Y269436D01*
X191389Y269109D01*
X191911Y268769D01*
X192426Y268417D01*
X192931Y268051D01*
X193427Y267674D01*
X193914Y267284D01*
X194391Y266883D01*
X194858Y266470D01*
X195314Y266046D01*
X195761Y265611D01*
X196196Y265164D01*
X196620Y264708D01*
X197033Y264241D01*
X197434Y263764D01*
X197824Y263277D01*
X198201Y262781D01*
X198567Y262276D01*
X198919Y261761D01*
X199259Y261239D01*
X199586Y260708D01*
X199900Y260170D01*
X200201Y259623D01*
X200488Y259070D01*
X200761Y258510D01*
X201021Y257943D01*
X201267Y257370D01*
X201498Y256791D01*
X201715Y256207D01*
X201918Y255618D01*
X202106Y255023D01*
X202280Y254425D01*
X202439Y253822D01*
X202583Y253215D01*
X202712Y252605D01*
X202826Y251992D01*
X202925Y251377D01*
X203009Y250759D01*
X203078Y250140D01*
X203131Y249519D01*
X203169Y248896D01*
X203192Y248273D01*
X203200Y247650D01*
X203192Y247027D01*
X203169Y246404D01*
X203131Y245781D01*
X203078Y245160D01*
X203009Y244541D01*
X202925Y243923D01*
X202826Y243308D01*
X202712Y242695D01*
X202583Y242085D01*
X202439Y241478D01*
X202280Y240875D01*
X202106Y240277D01*
X201918Y239682D01*
X201715Y239093D01*
X201498Y238509D01*
X201267Y237930D01*
X201021Y237357D01*
X200761Y236790D01*
X200488Y236230D01*
X200201Y235677D01*
X199900Y235130D01*
X199586Y234592D01*
X199259Y234061D01*
X198919Y233539D01*
X198567Y233024D01*
X198201Y232519D01*
X197824Y232023D01*
X197434Y231536D01*
X197033Y231059D01*
X196620Y230592D01*
X196196Y230136D01*
X195761Y229689D01*
X195314Y229254D01*
X194858Y228830D01*
X194391Y228417D01*
X193914Y228016D01*
X193427Y227626D01*
X192931Y227249D01*
X192426Y226883D01*
X191911Y226531D01*
X191389Y226191D01*
X190858Y225864D01*
X190320Y225550D01*
X189773Y225249D01*
X189220Y224962D01*
X188660Y224689D01*
X188093Y224429D01*
X187520Y224183D01*
X186941Y223952D01*
X186357Y223735D01*
X185768Y223532D01*
X185173Y223344D01*
X184575Y223170D01*
X183972Y223011D01*
X183365Y222867D01*
X182755Y222738D01*
X182142Y222624D01*
X181527Y222525D01*
X180909Y222441D01*
X180290Y222372D01*
X179669Y222319D01*
X179046Y222281D01*
X178423Y222258D01*
X177800Y222250D01*
X177177Y222258D01*
X176554Y222281D01*
X175931Y222319D01*
X175310Y222372D01*
X174691Y222441D01*
X174073Y222525D01*
X173458Y222624D01*
X172845Y222738D01*
X172235Y222867D01*
X171628Y223011D01*
X171025Y223170D01*
X170427Y223344D01*
X169832Y223532D01*
X169243Y223735D01*
X168659Y223952D01*
X168080Y224183D01*
X167507Y224429D01*
X166940Y224689D01*
X166380Y224962D01*
X165827Y225249D01*
X165280Y225550D01*
X164742Y225864D01*
X164211Y226191D01*
X163689Y226531D01*
X163174Y226883D01*
X162669Y227249D01*
X162173Y227626D01*
X161686Y228016D01*
X161209Y228417D01*
X160742Y228830D01*
X160286Y229254D01*
X159839Y229689D01*
X159404Y230136D01*
X158980Y230592D01*
X158567Y231059D01*
X158166Y231536D01*
X157776Y232023D01*
X157399Y232519D01*
X157033Y233024D01*
X156681Y233539D01*
X156341Y234061D01*
X156014Y234592D01*
X155700Y235130D01*
X155399Y235677D01*
X155112Y236230D01*
X154839Y236790D01*
X154579Y237357D01*
X154333Y237930D01*
X154102Y238509D01*
X153885Y239093D01*
X153682Y239682D01*
X153494Y240277D01*
X153320Y240875D01*
X153161Y241478D01*
X153017Y242085D01*
X152888Y242695D01*
X152774Y243308D01*
X152675Y243923D01*
X152591Y244541D01*
X152522Y245160D01*
X152469Y245781D01*
X152431Y246404D01*
X152408Y247027D01*
X152400Y247650D01*
X156210Y107950D02*
X199390Y107950D01*
X199390Y146050D02*
X156210Y146050D01*
X153670Y143510D02*
X153670Y110490D01*
X201930Y110490D02*
X201930Y143510D01*
X156210Y107950D02*
X156110Y107952D01*
X156011Y107958D01*
X155911Y107968D01*
X155813Y107981D01*
X155714Y107999D01*
X155617Y108020D01*
X155521Y108045D01*
X155425Y108074D01*
X155331Y108107D01*
X155238Y108143D01*
X155147Y108183D01*
X155057Y108227D01*
X154969Y108274D01*
X154883Y108324D01*
X154799Y108378D01*
X154717Y108435D01*
X154638Y108495D01*
X154560Y108559D01*
X154486Y108625D01*
X154414Y108694D01*
X154345Y108766D01*
X154279Y108840D01*
X154215Y108918D01*
X154155Y108997D01*
X154098Y109079D01*
X154044Y109163D01*
X153994Y109249D01*
X153947Y109337D01*
X153903Y109427D01*
X153863Y109518D01*
X153827Y109611D01*
X153794Y109705D01*
X153765Y109801D01*
X153740Y109897D01*
X153719Y109994D01*
X153701Y110093D01*
X153688Y110191D01*
X153678Y110291D01*
X153672Y110390D01*
X153670Y110490D01*
X199390Y107950D02*
X199490Y107952D01*
X199589Y107958D01*
X199689Y107968D01*
X199787Y107981D01*
X199886Y107999D01*
X199983Y108020D01*
X200079Y108045D01*
X200175Y108074D01*
X200269Y108107D01*
X200362Y108143D01*
X200453Y108183D01*
X200543Y108227D01*
X200631Y108274D01*
X200717Y108324D01*
X200801Y108378D01*
X200883Y108435D01*
X200962Y108495D01*
X201040Y108559D01*
X201114Y108625D01*
X201186Y108694D01*
X201255Y108766D01*
X201321Y108840D01*
X201385Y108918D01*
X201445Y108997D01*
X201502Y109079D01*
X201556Y109163D01*
X201606Y109249D01*
X201653Y109337D01*
X201697Y109427D01*
X201737Y109518D01*
X201773Y109611D01*
X201806Y109705D01*
X201835Y109801D01*
X201860Y109897D01*
X201881Y109994D01*
X201899Y110093D01*
X201912Y110191D01*
X201922Y110291D01*
X201928Y110390D01*
X201930Y110490D01*
X156210Y146050D02*
X156110Y146048D01*
X156011Y146042D01*
X155911Y146032D01*
X155813Y146019D01*
X155714Y146001D01*
X155617Y145980D01*
X155521Y145955D01*
X155425Y145926D01*
X155331Y145893D01*
X155238Y145857D01*
X155147Y145817D01*
X155057Y145773D01*
X154969Y145726D01*
X154883Y145676D01*
X154799Y145622D01*
X154717Y145565D01*
X154638Y145505D01*
X154560Y145441D01*
X154486Y145375D01*
X154414Y145306D01*
X154345Y145234D01*
X154279Y145160D01*
X154215Y145082D01*
X154155Y145003D01*
X154098Y144921D01*
X154044Y144837D01*
X153994Y144751D01*
X153947Y144663D01*
X153903Y144573D01*
X153863Y144482D01*
X153827Y144389D01*
X153794Y144295D01*
X153765Y144199D01*
X153740Y144103D01*
X153719Y144006D01*
X153701Y143907D01*
X153688Y143809D01*
X153678Y143709D01*
X153672Y143610D01*
X153670Y143510D01*
X199390Y146050D02*
X199490Y146048D01*
X199589Y146042D01*
X199689Y146032D01*
X199787Y146019D01*
X199886Y146001D01*
X199983Y145980D01*
X200079Y145955D01*
X200175Y145926D01*
X200269Y145893D01*
X200362Y145857D01*
X200453Y145817D01*
X200543Y145773D01*
X200631Y145726D01*
X200717Y145676D01*
X200801Y145622D01*
X200883Y145565D01*
X200962Y145505D01*
X201040Y145441D01*
X201114Y145375D01*
X201186Y145306D01*
X201255Y145234D01*
X201321Y145160D01*
X201385Y145082D01*
X201445Y145003D01*
X201502Y144921D01*
X201556Y144837D01*
X201606Y144751D01*
X201653Y144663D01*
X201697Y144573D01*
X201737Y144482D01*
X201773Y144389D01*
X201806Y144295D01*
X201835Y144199D01*
X201860Y144103D01*
X201881Y144006D01*
X201899Y143907D01*
X201912Y143809D01*
X201922Y143709D01*
X201928Y143610D01*
X201930Y143510D01*
X175260Y127000D02*
X173990Y127000D01*
D11*
X175260Y127000D02*
X175260Y119380D01*
X175260Y127000D02*
X175260Y134620D01*
X180340Y127000D02*
X180340Y119380D01*
X180340Y127000D02*
X180340Y134620D01*
D10*
X180340Y127000D02*
X181610Y127000D01*
X196850Y97790D02*
X196850Y54610D01*
X158750Y54610D02*
X158750Y97790D01*
X161290Y52070D02*
X194310Y52070D01*
X194310Y100330D02*
X161290Y100330D01*
X196850Y54610D02*
X196848Y54510D01*
X196842Y54411D01*
X196832Y54311D01*
X196819Y54213D01*
X196801Y54114D01*
X196780Y54017D01*
X196755Y53921D01*
X196726Y53825D01*
X196693Y53731D01*
X196657Y53638D01*
X196617Y53547D01*
X196573Y53457D01*
X196526Y53369D01*
X196476Y53283D01*
X196422Y53199D01*
X196365Y53117D01*
X196305Y53038D01*
X196241Y52960D01*
X196175Y52886D01*
X196106Y52814D01*
X196034Y52745D01*
X195960Y52679D01*
X195882Y52615D01*
X195803Y52555D01*
X195721Y52498D01*
X195637Y52444D01*
X195551Y52394D01*
X195463Y52347D01*
X195373Y52303D01*
X195282Y52263D01*
X195189Y52227D01*
X195095Y52194D01*
X194999Y52165D01*
X194903Y52140D01*
X194806Y52119D01*
X194707Y52101D01*
X194609Y52088D01*
X194509Y52078D01*
X194410Y52072D01*
X194310Y52070D01*
X196850Y97790D02*
X196848Y97890D01*
X196842Y97989D01*
X196832Y98089D01*
X196819Y98187D01*
X196801Y98286D01*
X196780Y98383D01*
X196755Y98479D01*
X196726Y98575D01*
X196693Y98669D01*
X196657Y98762D01*
X196617Y98853D01*
X196573Y98943D01*
X196526Y99031D01*
X196476Y99117D01*
X196422Y99201D01*
X196365Y99283D01*
X196305Y99362D01*
X196241Y99440D01*
X196175Y99514D01*
X196106Y99586D01*
X196034Y99655D01*
X195960Y99721D01*
X195882Y99785D01*
X195803Y99845D01*
X195721Y99902D01*
X195637Y99956D01*
X195551Y100006D01*
X195463Y100053D01*
X195373Y100097D01*
X195282Y100137D01*
X195189Y100173D01*
X195095Y100206D01*
X194999Y100235D01*
X194903Y100260D01*
X194806Y100281D01*
X194707Y100299D01*
X194609Y100312D01*
X194509Y100322D01*
X194410Y100328D01*
X194310Y100330D01*
X158750Y54610D02*
X158752Y54510D01*
X158758Y54411D01*
X158768Y54311D01*
X158781Y54213D01*
X158799Y54114D01*
X158820Y54017D01*
X158845Y53921D01*
X158874Y53825D01*
X158907Y53731D01*
X158943Y53638D01*
X158983Y53547D01*
X159027Y53457D01*
X159074Y53369D01*
X159124Y53283D01*
X159178Y53199D01*
X159235Y53117D01*
X159295Y53038D01*
X159359Y52960D01*
X159425Y52886D01*
X159494Y52814D01*
X159566Y52745D01*
X159640Y52679D01*
X159718Y52615D01*
X159797Y52555D01*
X159879Y52498D01*
X159963Y52444D01*
X160049Y52394D01*
X160137Y52347D01*
X160227Y52303D01*
X160318Y52263D01*
X160411Y52227D01*
X160505Y52194D01*
X160601Y52165D01*
X160697Y52140D01*
X160794Y52119D01*
X160893Y52101D01*
X160991Y52088D01*
X161091Y52078D01*
X161190Y52072D01*
X161290Y52070D01*
X158750Y97790D02*
X158752Y97890D01*
X158758Y97989D01*
X158768Y98089D01*
X158781Y98187D01*
X158799Y98286D01*
X158820Y98383D01*
X158845Y98479D01*
X158874Y98575D01*
X158907Y98669D01*
X158943Y98762D01*
X158983Y98853D01*
X159027Y98943D01*
X159074Y99031D01*
X159124Y99117D01*
X159178Y99201D01*
X159235Y99283D01*
X159295Y99362D01*
X159359Y99440D01*
X159425Y99514D01*
X159494Y99586D01*
X159566Y99655D01*
X159640Y99721D01*
X159718Y99785D01*
X159797Y99845D01*
X159879Y99902D01*
X159963Y99956D01*
X160049Y100006D01*
X160137Y100053D01*
X160227Y100097D01*
X160318Y100137D01*
X160411Y100173D01*
X160505Y100206D01*
X160601Y100235D01*
X160697Y100260D01*
X160794Y100281D01*
X160893Y100299D01*
X160991Y100312D01*
X161091Y100322D01*
X161190Y100328D01*
X161290Y100330D01*
X177800Y73660D02*
X177800Y72390D01*
D11*
X177800Y73660D02*
X185420Y73660D01*
X177800Y73660D02*
X170180Y73660D01*
X177800Y78740D02*
X185420Y78740D01*
X177800Y78740D02*
X170180Y78740D01*
D10*
X177800Y78740D02*
X177800Y80010D01*
X199390Y184150D02*
X156210Y184150D01*
X156210Y222250D02*
X199390Y222250D01*
X153670Y219710D02*
X153670Y186690D01*
X201930Y186690D02*
X201930Y219710D01*
X156210Y184150D02*
X156110Y184152D01*
X156011Y184158D01*
X155911Y184168D01*
X155813Y184181D01*
X155714Y184199D01*
X155617Y184220D01*
X155521Y184245D01*
X155425Y184274D01*
X155331Y184307D01*
X155238Y184343D01*
X155147Y184383D01*
X155057Y184427D01*
X154969Y184474D01*
X154883Y184524D01*
X154799Y184578D01*
X154717Y184635D01*
X154638Y184695D01*
X154560Y184759D01*
X154486Y184825D01*
X154414Y184894D01*
X154345Y184966D01*
X154279Y185040D01*
X154215Y185118D01*
X154155Y185197D01*
X154098Y185279D01*
X154044Y185363D01*
X153994Y185449D01*
X153947Y185537D01*
X153903Y185627D01*
X153863Y185718D01*
X153827Y185811D01*
X153794Y185905D01*
X153765Y186001D01*
X153740Y186097D01*
X153719Y186194D01*
X153701Y186293D01*
X153688Y186391D01*
X153678Y186491D01*
X153672Y186590D01*
X153670Y186690D01*
X199390Y184150D02*
X199490Y184152D01*
X199589Y184158D01*
X199689Y184168D01*
X199787Y184181D01*
X199886Y184199D01*
X199983Y184220D01*
X200079Y184245D01*
X200175Y184274D01*
X200269Y184307D01*
X200362Y184343D01*
X200453Y184383D01*
X200543Y184427D01*
X200631Y184474D01*
X200717Y184524D01*
X200801Y184578D01*
X200883Y184635D01*
X200962Y184695D01*
X201040Y184759D01*
X201114Y184825D01*
X201186Y184894D01*
X201255Y184966D01*
X201321Y185040D01*
X201385Y185118D01*
X201445Y185197D01*
X201502Y185279D01*
X201556Y185363D01*
X201606Y185449D01*
X201653Y185537D01*
X201697Y185627D01*
X201737Y185718D01*
X201773Y185811D01*
X201806Y185905D01*
X201835Y186001D01*
X201860Y186097D01*
X201881Y186194D01*
X201899Y186293D01*
X201912Y186391D01*
X201922Y186491D01*
X201928Y186590D01*
X201930Y186690D01*
X156210Y222250D02*
X156110Y222248D01*
X156011Y222242D01*
X155911Y222232D01*
X155813Y222219D01*
X155714Y222201D01*
X155617Y222180D01*
X155521Y222155D01*
X155425Y222126D01*
X155331Y222093D01*
X155238Y222057D01*
X155147Y222017D01*
X155057Y221973D01*
X154969Y221926D01*
X154883Y221876D01*
X154799Y221822D01*
X154717Y221765D01*
X154638Y221705D01*
X154560Y221641D01*
X154486Y221575D01*
X154414Y221506D01*
X154345Y221434D01*
X154279Y221360D01*
X154215Y221282D01*
X154155Y221203D01*
X154098Y221121D01*
X154044Y221037D01*
X153994Y220951D01*
X153947Y220863D01*
X153903Y220773D01*
X153863Y220682D01*
X153827Y220589D01*
X153794Y220495D01*
X153765Y220399D01*
X153740Y220303D01*
X153719Y220206D01*
X153701Y220107D01*
X153688Y220009D01*
X153678Y219909D01*
X153672Y219810D01*
X153670Y219710D01*
X199390Y222250D02*
X199490Y222248D01*
X199589Y222242D01*
X199689Y222232D01*
X199787Y222219D01*
X199886Y222201D01*
X199983Y222180D01*
X200079Y222155D01*
X200175Y222126D01*
X200269Y222093D01*
X200362Y222057D01*
X200453Y222017D01*
X200543Y221973D01*
X200631Y221926D01*
X200717Y221876D01*
X200801Y221822D01*
X200883Y221765D01*
X200962Y221705D01*
X201040Y221641D01*
X201114Y221575D01*
X201186Y221506D01*
X201255Y221434D01*
X201321Y221360D01*
X201385Y221282D01*
X201445Y221203D01*
X201502Y221121D01*
X201556Y221037D01*
X201606Y220951D01*
X201653Y220863D01*
X201697Y220773D01*
X201737Y220682D01*
X201773Y220589D01*
X201806Y220495D01*
X201835Y220399D01*
X201860Y220303D01*
X201881Y220206D01*
X201899Y220107D01*
X201912Y220009D01*
X201922Y219909D01*
X201928Y219810D01*
X201930Y219710D01*
X175260Y203200D02*
X173990Y203200D01*
D11*
X175260Y203200D02*
X175260Y195580D01*
X175260Y203200D02*
X175260Y210820D01*
X180340Y203200D02*
X180340Y195580D01*
X180340Y203200D02*
X180340Y210820D01*
D10*
X180340Y203200D02*
X181610Y203200D01*
X199390Y146050D02*
X156210Y146050D01*
X156210Y184150D02*
X199390Y184150D01*
X153670Y181610D02*
X153670Y148590D01*
X201930Y148590D02*
X201930Y181610D01*
X156210Y146050D02*
X156110Y146052D01*
X156011Y146058D01*
X155911Y146068D01*
X155813Y146081D01*
X155714Y146099D01*
X155617Y146120D01*
X155521Y146145D01*
X155425Y146174D01*
X155331Y146207D01*
X155238Y146243D01*
X155147Y146283D01*
X155057Y146327D01*
X154969Y146374D01*
X154883Y146424D01*
X154799Y146478D01*
X154717Y146535D01*
X154638Y146595D01*
X154560Y146659D01*
X154486Y146725D01*
X154414Y146794D01*
X154345Y146866D01*
X154279Y146940D01*
X154215Y147018D01*
X154155Y147097D01*
X154098Y147179D01*
X154044Y147263D01*
X153994Y147349D01*
X153947Y147437D01*
X153903Y147527D01*
X153863Y147618D01*
X153827Y147711D01*
X153794Y147805D01*
X153765Y147901D01*
X153740Y147997D01*
X153719Y148094D01*
X153701Y148193D01*
X153688Y148291D01*
X153678Y148391D01*
X153672Y148490D01*
X153670Y148590D01*
X199390Y146050D02*
X199490Y146052D01*
X199589Y146058D01*
X199689Y146068D01*
X199787Y146081D01*
X199886Y146099D01*
X199983Y146120D01*
X200079Y146145D01*
X200175Y146174D01*
X200269Y146207D01*
X200362Y146243D01*
X200453Y146283D01*
X200543Y146327D01*
X200631Y146374D01*
X200717Y146424D01*
X200801Y146478D01*
X200883Y146535D01*
X200962Y146595D01*
X201040Y146659D01*
X201114Y146725D01*
X201186Y146794D01*
X201255Y146866D01*
X201321Y146940D01*
X201385Y147018D01*
X201445Y147097D01*
X201502Y147179D01*
X201556Y147263D01*
X201606Y147349D01*
X201653Y147437D01*
X201697Y147527D01*
X201737Y147618D01*
X201773Y147711D01*
X201806Y147805D01*
X201835Y147901D01*
X201860Y147997D01*
X201881Y148094D01*
X201899Y148193D01*
X201912Y148291D01*
X201922Y148391D01*
X201928Y148490D01*
X201930Y148590D01*
X156210Y184150D02*
X156110Y184148D01*
X156011Y184142D01*
X155911Y184132D01*
X155813Y184119D01*
X155714Y184101D01*
X155617Y184080D01*
X155521Y184055D01*
X155425Y184026D01*
X155331Y183993D01*
X155238Y183957D01*
X155147Y183917D01*
X155057Y183873D01*
X154969Y183826D01*
X154883Y183776D01*
X154799Y183722D01*
X154717Y183665D01*
X154638Y183605D01*
X154560Y183541D01*
X154486Y183475D01*
X154414Y183406D01*
X154345Y183334D01*
X154279Y183260D01*
X154215Y183182D01*
X154155Y183103D01*
X154098Y183021D01*
X154044Y182937D01*
X153994Y182851D01*
X153947Y182763D01*
X153903Y182673D01*
X153863Y182582D01*
X153827Y182489D01*
X153794Y182395D01*
X153765Y182299D01*
X153740Y182203D01*
X153719Y182106D01*
X153701Y182007D01*
X153688Y181909D01*
X153678Y181809D01*
X153672Y181710D01*
X153670Y181610D01*
X199390Y184150D02*
X199490Y184148D01*
X199589Y184142D01*
X199689Y184132D01*
X199787Y184119D01*
X199886Y184101D01*
X199983Y184080D01*
X200079Y184055D01*
X200175Y184026D01*
X200269Y183993D01*
X200362Y183957D01*
X200453Y183917D01*
X200543Y183873D01*
X200631Y183826D01*
X200717Y183776D01*
X200801Y183722D01*
X200883Y183665D01*
X200962Y183605D01*
X201040Y183541D01*
X201114Y183475D01*
X201186Y183406D01*
X201255Y183334D01*
X201321Y183260D01*
X201385Y183182D01*
X201445Y183103D01*
X201502Y183021D01*
X201556Y182937D01*
X201606Y182851D01*
X201653Y182763D01*
X201697Y182673D01*
X201737Y182582D01*
X201773Y182489D01*
X201806Y182395D01*
X201835Y182299D01*
X201860Y182203D01*
X201881Y182106D01*
X201899Y182007D01*
X201912Y181909D01*
X201922Y181809D01*
X201928Y181710D01*
X201930Y181610D01*
X175260Y165100D02*
X173990Y165100D01*
D11*
X175260Y165100D02*
X175260Y157480D01*
X175260Y165100D02*
X175260Y172720D01*
X180340Y165100D02*
X180340Y157480D01*
X180340Y165100D02*
X180340Y172720D01*
D10*
X180340Y165100D02*
X181610Y165100D01*
X400050Y228600D02*
X406400Y222250D01*
X400050Y228600D02*
X400050Y241300D01*
X406400Y247650D01*
X419100Y247650D01*
X425450Y241300D01*
X425450Y228600D01*
X419100Y222250D01*
X400050Y190500D02*
X400050Y177800D01*
X400050Y190500D02*
X406400Y196850D01*
X419100Y196850D01*
X425450Y190500D01*
X406400Y196850D02*
X400050Y203200D01*
X400050Y215900D01*
X406400Y222250D01*
X419100Y222250D01*
X425450Y215900D01*
X425450Y203200D01*
X419100Y196850D01*
X400050Y152400D02*
X406400Y146050D01*
X400050Y152400D02*
X400050Y165100D01*
X406400Y171450D01*
X419100Y171450D01*
X425450Y165100D01*
X425450Y152400D01*
X419100Y146050D01*
X406400Y171450D02*
X400050Y177800D01*
X419100Y171450D02*
X425450Y177800D01*
X425450Y190500D01*
X400050Y114300D02*
X400050Y101600D01*
X400050Y114300D02*
X406400Y120650D01*
X419100Y120650D01*
X425450Y114300D01*
X406400Y120650D02*
X400050Y127000D01*
X400050Y139700D01*
X406400Y146050D01*
X419100Y146050D01*
X425450Y139700D01*
X425450Y127000D01*
X419100Y120650D01*
X400050Y76200D02*
X406400Y69850D01*
X400050Y76200D02*
X400050Y88900D01*
X406400Y95250D01*
X419100Y95250D01*
X425450Y88900D01*
X425450Y76200D01*
X419100Y69850D01*
X406400Y95250D02*
X400050Y101600D01*
X419100Y95250D02*
X425450Y101600D01*
X425450Y114300D01*
X400050Y38100D02*
X400050Y25400D01*
X400050Y38100D02*
X406400Y44450D01*
X419100Y44450D01*
X425450Y38100D01*
X406400Y44450D02*
X400050Y50800D01*
X400050Y63500D01*
X406400Y69850D01*
X419100Y69850D01*
X425450Y63500D01*
X425450Y50800D01*
X419100Y44450D01*
X419100Y19050D02*
X406400Y19050D01*
X400050Y25400D01*
X419100Y19050D02*
X425450Y25400D01*
X425450Y38100D01*
X400050Y254000D02*
X400050Y266700D01*
X406400Y273050D01*
X419100Y273050D01*
X425450Y266700D01*
X406400Y247650D02*
X400050Y254000D01*
X419100Y247650D02*
X425450Y254000D01*
X425450Y266700D01*
X139700Y127000D02*
X139700Y114300D01*
X133350Y107950D01*
X120650Y107950D01*
X114300Y114300D01*
X133350Y107950D02*
X139700Y101600D01*
X139700Y88900D01*
X133350Y82550D01*
X120650Y82550D01*
X114300Y88900D01*
X114300Y101600D01*
X120650Y107950D01*
X120650Y133350D02*
X133350Y133350D01*
X139700Y127000D01*
X120650Y133350D02*
X114300Y127000D01*
X114300Y114300D01*
X133350Y82550D02*
X139700Y76200D01*
X139700Y63500D01*
X133350Y57150D01*
X120650Y57150D01*
X114300Y63500D01*
X114300Y76200D01*
X120650Y82550D01*
X247650Y57150D02*
X247650Y44450D01*
X241300Y38100D01*
X228600Y38100D01*
X222250Y44450D01*
X228600Y63500D02*
X241300Y63500D01*
X247650Y57150D01*
X228600Y63500D02*
X222250Y57150D01*
X222250Y44450D01*
X241300Y38100D02*
X247650Y31750D01*
X247650Y19050D01*
X241300Y12700D01*
X228600Y12700D01*
X222250Y19050D01*
X222250Y31750D01*
X228600Y38100D01*
X139700Y165100D02*
X127000Y165100D01*
X120650Y171450D01*
X120650Y184150D01*
X127000Y190500D01*
X120650Y171450D02*
X114300Y165100D01*
X101600Y165100D01*
X95250Y171450D01*
X95250Y184150D01*
X101600Y190500D01*
X114300Y190500D01*
X120650Y184150D01*
X146050Y184150D02*
X146050Y171450D01*
X139700Y165100D01*
X146050Y184150D02*
X139700Y190500D01*
X127000Y190500D01*
X95250Y171450D02*
X88900Y165100D01*
X76200Y165100D01*
X69850Y171450D01*
X69850Y184150D01*
X76200Y190500D01*
X88900Y190500D01*
X95250Y184150D01*
X63500Y44450D02*
X63500Y39370D01*
X63500Y44450D02*
X58420Y44450D01*
X38100Y44450D02*
X38100Y39370D01*
X38100Y44450D02*
X43180Y44450D01*
X38100Y24130D02*
X38100Y19050D01*
X43180Y19050D01*
X58420Y19050D02*
X63500Y19050D01*
X63500Y24130D01*
X114300Y39370D02*
X114300Y44450D01*
X109220Y44450D01*
X88900Y44450D02*
X88900Y39370D01*
X88900Y44450D02*
X93980Y44450D01*
X88900Y24130D02*
X88900Y19050D01*
X93980Y19050D01*
X109220Y19050D02*
X114300Y19050D01*
X114300Y24130D01*
X287020Y57150D02*
X287022Y57250D01*
X287028Y57349D01*
X287038Y57449D01*
X287051Y57547D01*
X287069Y57646D01*
X287090Y57743D01*
X287115Y57839D01*
X287144Y57935D01*
X287177Y58029D01*
X287213Y58122D01*
X287253Y58213D01*
X287297Y58303D01*
X287344Y58391D01*
X287394Y58477D01*
X287448Y58561D01*
X287505Y58643D01*
X287565Y58722D01*
X287629Y58800D01*
X287695Y58874D01*
X287764Y58946D01*
X287836Y59015D01*
X287910Y59081D01*
X287988Y59145D01*
X288067Y59205D01*
X288149Y59262D01*
X288233Y59316D01*
X288319Y59366D01*
X288407Y59413D01*
X288497Y59457D01*
X288588Y59497D01*
X288681Y59533D01*
X288775Y59566D01*
X288871Y59595D01*
X288967Y59620D01*
X289064Y59641D01*
X289163Y59659D01*
X289261Y59672D01*
X289361Y59682D01*
X289460Y59688D01*
X289560Y59690D01*
X287020Y44450D02*
X287022Y44350D01*
X287028Y44251D01*
X287038Y44151D01*
X287051Y44053D01*
X287069Y43954D01*
X287090Y43857D01*
X287115Y43761D01*
X287144Y43665D01*
X287177Y43571D01*
X287213Y43478D01*
X287253Y43387D01*
X287297Y43297D01*
X287344Y43209D01*
X287394Y43123D01*
X287448Y43039D01*
X287505Y42957D01*
X287565Y42878D01*
X287629Y42800D01*
X287695Y42726D01*
X287764Y42654D01*
X287836Y42585D01*
X287910Y42519D01*
X287988Y42455D01*
X288067Y42395D01*
X288149Y42338D01*
X288233Y42284D01*
X288319Y42234D01*
X288407Y42187D01*
X288497Y42143D01*
X288588Y42103D01*
X288681Y42067D01*
X288775Y42034D01*
X288871Y42005D01*
X288967Y41980D01*
X289064Y41959D01*
X289163Y41941D01*
X289261Y41928D01*
X289361Y41918D01*
X289460Y41912D01*
X289560Y41910D01*
X320040Y41910D02*
X320140Y41912D01*
X320239Y41918D01*
X320339Y41928D01*
X320437Y41941D01*
X320536Y41959D01*
X320633Y41980D01*
X320729Y42005D01*
X320825Y42034D01*
X320919Y42067D01*
X321012Y42103D01*
X321103Y42143D01*
X321193Y42187D01*
X321281Y42234D01*
X321367Y42284D01*
X321451Y42338D01*
X321533Y42395D01*
X321612Y42455D01*
X321690Y42519D01*
X321764Y42585D01*
X321836Y42654D01*
X321905Y42726D01*
X321971Y42800D01*
X322035Y42878D01*
X322095Y42957D01*
X322152Y43039D01*
X322206Y43123D01*
X322256Y43209D01*
X322303Y43297D01*
X322347Y43387D01*
X322387Y43478D01*
X322423Y43571D01*
X322456Y43665D01*
X322485Y43761D01*
X322510Y43857D01*
X322531Y43954D01*
X322549Y44053D01*
X322562Y44151D01*
X322572Y44251D01*
X322578Y44350D01*
X322580Y44450D01*
X322580Y57150D02*
X322578Y57250D01*
X322572Y57349D01*
X322562Y57449D01*
X322549Y57547D01*
X322531Y57646D01*
X322510Y57743D01*
X322485Y57839D01*
X322456Y57935D01*
X322423Y58029D01*
X322387Y58122D01*
X322347Y58213D01*
X322303Y58303D01*
X322256Y58391D01*
X322206Y58477D01*
X322152Y58561D01*
X322095Y58643D01*
X322035Y58722D01*
X321971Y58800D01*
X321905Y58874D01*
X321836Y58946D01*
X321764Y59015D01*
X321690Y59081D01*
X321612Y59145D01*
X321533Y59205D01*
X321451Y59262D01*
X321367Y59316D01*
X321281Y59366D01*
X321193Y59413D01*
X321103Y59457D01*
X321012Y59497D01*
X320919Y59533D01*
X320825Y59566D01*
X320729Y59595D01*
X320633Y59620D01*
X320536Y59641D01*
X320437Y59659D01*
X320339Y59672D01*
X320239Y59682D01*
X320140Y59688D01*
X320040Y59690D01*
X292100Y59690D02*
X289560Y59690D01*
X292100Y59690D02*
X293370Y58420D01*
X292100Y41910D02*
X289560Y41910D01*
X292100Y41910D02*
X293370Y43180D01*
X316230Y58420D02*
X317500Y59690D01*
X316230Y58420D02*
X293370Y58420D01*
X316230Y43180D02*
X317500Y41910D01*
X316230Y43180D02*
X293370Y43180D01*
X317500Y59690D02*
X320040Y59690D01*
X320040Y41910D02*
X317500Y41910D01*
M02*
