G04 EAGLE Gerber X2 export*
%TF.Part,Single*%
%TF.FileFunction,Soldermask,Top,1*%
%TF.FilePolarity,Negative*%
%TF.GenerationSoftware,Autodesk,EAGLE,8.6.0*%
%TF.CreationDate,2018-08-04T09:55:44Z*%
G75*
%MOMM*%
%FSLAX34Y34*%
%LPD*%
%AMOC8*
5,1,8,0,0,1.08239X$1,22.5*%
G01*
%ADD10P,1.649562X8X22.500000*%
%ADD11C,2.743200*%
%ADD12P,2.969212X8X292.500000*%
%ADD13P,1.951982X8X202.500000*%
%ADD14C,1.803400*%
%ADD15P,1.951982X8X22.500000*%
%ADD16P,1.649562X8X112.500000*%
%ADD17P,1.649562X8X292.500000*%
%ADD18P,1.649562X8X202.500000*%
%ADD19C,1.727200*%
%ADD20P,3.656530X8X292.500000*%
%ADD21C,1.524000*%
%ADD22P,1.759533X8X112.500000*%
%ADD23P,3.656530X8X22.500000*%
%ADD24P,1.627049X8X22.500000*%


D10*
X158750Y336550D03*
X209550Y336550D03*
D11*
X95250Y292100D03*
D12*
X95250Y241300D03*
D11*
X95250Y133350D03*
D12*
X95250Y82550D03*
D13*
X273050Y273050D03*
D14*
X298450Y273050D03*
D15*
X412750Y203200D03*
D14*
X387350Y203200D03*
D13*
X387350Y114300D03*
D14*
X412750Y114300D03*
D16*
X241300Y241300D03*
X241300Y317500D03*
D17*
X171450Y222250D03*
X171450Y146050D03*
D18*
X241300Y368300D03*
X165100Y368300D03*
D16*
X209550Y44450D03*
X209550Y120650D03*
D19*
X107950Y354330D02*
X107950Y369570D01*
X133350Y369570D02*
X133350Y354330D01*
D20*
X31750Y349250D03*
X31750Y25400D03*
X450850Y196850D03*
X25400Y203200D03*
D21*
X266446Y361950D02*
X279654Y361950D01*
X279654Y311150D02*
X266446Y311150D01*
X266446Y336550D02*
X279654Y336550D01*
X336296Y209550D02*
X349504Y209550D01*
X349504Y158750D02*
X336296Y158750D01*
X336296Y184150D02*
X349504Y184150D01*
X279654Y63500D02*
X266446Y63500D01*
X266446Y114300D02*
X279654Y114300D01*
X279654Y88900D02*
X266446Y88900D01*
X209804Y209550D02*
X196596Y209550D01*
X196596Y158750D02*
X209804Y158750D01*
X209804Y184150D02*
X196596Y184150D01*
D19*
X377190Y335280D02*
X377190Y350520D01*
X400050Y350520D02*
X400050Y335280D01*
X422910Y335280D02*
X422910Y350520D01*
X377190Y71120D02*
X377190Y55880D01*
X400050Y55880D02*
X400050Y71120D01*
X422910Y71120D02*
X422910Y55880D01*
X519430Y349250D02*
X534670Y349250D01*
X534670Y323850D02*
X519430Y323850D01*
X519430Y298450D02*
X534670Y298450D01*
X534670Y222250D02*
X519430Y222250D01*
X519430Y196850D02*
X534670Y196850D01*
X534670Y171450D02*
X519430Y171450D01*
X519430Y95250D02*
X534670Y95250D01*
X534670Y69850D02*
X519430Y69850D01*
X519430Y44450D02*
X534670Y44450D01*
D17*
X304800Y114300D03*
X304800Y63500D03*
X330200Y285750D03*
X330200Y234950D03*
D10*
X381000Y158750D03*
X431800Y158750D03*
D17*
X330200Y355600D03*
X330200Y304800D03*
X323850Y114300D03*
X323850Y63500D03*
X209550Y292100D03*
X209550Y241300D03*
D16*
X184150Y57150D03*
X184150Y107950D03*
X355600Y247650D03*
X355600Y323850D03*
X349250Y63500D03*
X349250Y139700D03*
X495300Y171450D03*
X495300Y222250D03*
D18*
X215900Y311150D03*
X165100Y311150D03*
D19*
X381000Y287020D02*
X381000Y271780D01*
X424180Y254000D02*
X439420Y254000D01*
X439420Y304800D02*
X424180Y304800D01*
D22*
X469900Y222250D03*
X469900Y349250D03*
X469900Y44450D03*
X469900Y171450D03*
D16*
X184150Y241300D03*
X184150Y292100D03*
D17*
X311150Y355600D03*
X311150Y304800D03*
D10*
X260350Y234950D03*
X311150Y234950D03*
D16*
X247650Y158750D03*
X247650Y209550D03*
X266700Y158750D03*
X266700Y209550D03*
X311150Y158750D03*
X311150Y209550D03*
D10*
X279400Y139700D03*
X330200Y139700D03*
D17*
X285750Y209550D03*
X285750Y158750D03*
D23*
X25400Y171450D03*
D24*
X228600Y88900D03*
X228600Y336550D03*
M02*
